%!PS-Adobe-2.0 EPSF-1.2
%%Creator: MATLAB, The MathWorks, Inc. Version 8.0.0.783 (R2012b). Operating System: Linux 3.7.10-1.16-desktop #1 SMP PREEMPT Fri May 31 20:21:23 UTC 2013 (97c14ba) x86_64.
%%Title: /home/herman/Documents/papers/gwispr-results/results_BD/pvalue_BD.eps
%%CreationDate: 01/09/2014  17:59:16
%%DocumentNeededFonts: Helvetica
%%DocumentProcessColors: Cyan Magenta Yellow Black
%%Extensions: CMYK
%%Pages: 1
%%BoundingBox:    84   253   491   590
%%EndComments

%%BeginProlog
% MathWorks dictionary
/MathWorks 160 dict begin
% definition operators
/bdef {bind def} bind def
/ldef {load def} bind def
/xdef {exch def} bdef
/xstore {exch store} bdef
% operator abbreviations
/c  /clip ldef
/cc /concat ldef
/cp /closepath ldef
/gr /grestore ldef
/gs /gsave ldef
/mt /moveto ldef
/np /newpath ldef
/cm /currentmatrix ldef
/sm /setmatrix ldef
/rm /rmoveto ldef
/rl /rlineto ldef
/s {show newpath} bdef
/sc {setcmykcolor} bdef
/sr /setrgbcolor ldef
/sg /setgray ldef
/w /setlinewidth ldef
/j /setlinejoin ldef
/cap /setlinecap ldef
/rc {rectclip} bdef
/rf {rectfill} bdef
% page state control
/pgsv () def
/bpage {/pgsv save def} bdef
/epage {pgsv restore} bdef
/bplot /gsave ldef
/eplot {stroke grestore} bdef
% orientation switch
/portraitMode 0 def /landscapeMode 1 def /rotateMode 2 def
% coordinate system mappings
/dpi2point 0 def
% font control
/FontSize 0 def
/FMS {/FontSize xstore findfont [FontSize 0 0 FontSize neg 0 0]
  makefont setfont} bdef
/reencode {exch dup where {pop load} {pop StandardEncoding} ifelse
  exch dup 3 1 roll findfont dup length dict begin
  { 1 index /FID ne {def}{pop pop} ifelse } forall
  /Encoding exch def currentdict end definefont pop} bdef
/isroman {findfont /CharStrings get /Agrave known} bdef
/FMSR {3 1 roll 1 index dup isroman {reencode} {pop pop} ifelse
  exch FMS} bdef
/csm {1 dpi2point div -1 dpi2point div scale neg translate
 dup landscapeMode eq {pop -90 rotate}
  {rotateMode eq {90 rotate} if} ifelse} bdef
% line types: solid, dotted, dashed, dotdash
/SO { [] 0 setdash } bdef
/DO { [.5 dpi2point mul 4 dpi2point mul] 0 setdash } bdef
/DA { [6 dpi2point mul] 0 setdash } bdef
/DD { [.5 dpi2point mul 4 dpi2point mul 6 dpi2point mul 4
  dpi2point mul] 0 setdash } bdef
% macros for lines and objects
/L {lineto stroke} bdef
/MP {3 1 roll moveto 1 sub {rlineto} repeat} bdef
/AP {{rlineto} repeat} bdef
/PDlw -1 def
/W {/PDlw currentlinewidth def setlinewidth} def
/PP {closepath eofill} bdef
/DP {closepath stroke} bdef
/MR {4 -2 roll moveto dup  0 exch rlineto exch 0 rlineto
  neg 0 exch rlineto closepath} bdef
/FR {MR stroke} bdef
/PR {MR fill} bdef
/L1i {{currentfile picstr readhexstring pop} image} bdef
/tMatrix matrix def
/MakeOval {newpath tMatrix currentmatrix pop translate scale
0 0 1 0 360 arc tMatrix setmatrix} bdef
/FO {MakeOval stroke} bdef
/PO {MakeOval fill} bdef
/PD {currentlinewidth 2 div 0 360 arc fill
   PDlw -1 eq not {PDlw w /PDlw -1 def} if} def
/FA {newpath tMatrix currentmatrix pop translate scale
  0 0 1 5 -2 roll arc tMatrix setmatrix stroke} bdef
/PA {newpath tMatrix currentmatrix pop	translate 0 0 moveto scale
  0 0 1 5 -2 roll arc closepath tMatrix setmatrix fill} bdef
/FAn {newpath tMatrix currentmatrix pop translate scale
  0 0 1 5 -2 roll arcn tMatrix setmatrix stroke} bdef
/PAn {newpath tMatrix currentmatrix pop translate 0 0 moveto scale
  0 0 1 5 -2 roll arcn closepath tMatrix setmatrix fill} bdef
/vradius 0 def /hradius 0 def /lry 0 def
/lrx 0 def /uly 0 def /ulx 0 def /rad 0 def
/MRR {/vradius xdef /hradius xdef /lry xdef /lrx xdef /uly xdef
  /ulx xdef newpath tMatrix currentmatrix pop ulx hradius add uly
  vradius add translate hradius vradius scale 0 0 1 180 270 arc 
  tMatrix setmatrix lrx hradius sub uly vradius add translate
  hradius vradius scale 0 0 1 270 360 arc tMatrix setmatrix
  lrx hradius sub lry vradius sub translate hradius vradius scale
  0 0 1 0 90 arc tMatrix setmatrix ulx hradius add lry vradius sub
  translate hradius vradius scale 0 0 1 90 180 arc tMatrix setmatrix
  closepath} bdef
/FRR {MRR stroke } bdef
/PRR {MRR fill } bdef
/MlrRR {/lry xdef /lrx xdef /uly xdef /ulx xdef /rad lry uly sub 2 div def
  newpath tMatrix currentmatrix pop ulx rad add uly rad add translate
  rad rad scale 0 0 1 90 270 arc tMatrix setmatrix lrx rad sub lry rad
  sub translate rad rad scale 0 0 1 270 90 arc tMatrix setmatrix
  closepath} bdef
/FlrRR {MlrRR stroke } bdef
/PlrRR {MlrRR fill } bdef
/MtbRR {/lry xdef /lrx xdef /uly xdef /ulx xdef /rad lrx ulx sub 2 div def
  newpath tMatrix currentmatrix pop ulx rad add uly rad add translate
  rad rad scale 0 0 1 180 360 arc tMatrix setmatrix lrx rad sub lry rad
  sub translate rad rad scale 0 0 1 0 180 arc tMatrix setmatrix
  closepath} bdef
/FtbRR {MtbRR stroke } bdef
/PtbRR {MtbRR fill } bdef
/stri 6 array def /dtri 6 array def
/smat 6 array def /dmat 6 array def
/tmat1 6 array def /tmat2 6 array def /dif 3 array def
/asub {/ind2 exch def /ind1 exch def dup dup
  ind1 get exch ind2 get sub exch } bdef
/tri_to_matrix {
  2 0 asub 3 1 asub 4 0 asub 5 1 asub
  dup 0 get exch 1 get 7 -1 roll astore } bdef
/compute_transform {
  dmat dtri tri_to_matrix tmat1 invertmatrix 
  smat stri tri_to_matrix tmat2 concatmatrix } bdef
/ds {stri astore pop} bdef
/dt {dtri astore pop} bdef
/db {2 copy /cols xdef /rows xdef mul dup 3 mul string
  currentfile exch readhexstring pop
  dup 0 3 index getinterval /rbmap xdef
  dup 2 index dup getinterval /gbmap xdef
  1 index dup 2 mul exch getinterval /bbmap xdef pop pop}bdef
/it {gs np dtri aload pop moveto lineto lineto cp c
  cols rows 8 compute_transform 
  rbmap gbmap bbmap true 3 colorimage gr}bdef
/il {newpath moveto lineto stroke}bdef
currentdict end def
%%EndProlog

%%BeginSetup
MathWorks begin

0 cap

end
%%EndSetup

%%Page: 1 1
%%BeginPageSetup
%%PageBoundingBox:    84   253   491   590
MathWorks begin
bpage
%%EndPageSetup

%%BeginObject: obj1
bplot

/dpi2point 16.6667 def
portraitMode 1216 9816 csm

  198   -25  6776  5609 MR c np
88 dict begin %Colortable dictionary
/c0 { 0.000000 0.000000 0.000000 sr} bdef
/c1 { 1.000000 1.000000 1.000000 sr} bdef
/c2 { 0.900000 0.000000 0.000000 sr} bdef
/c3 { 0.000000 0.820000 0.000000 sr} bdef
/c4 { 0.000000 0.000000 0.800000 sr} bdef
/c5 { 0.910000 0.820000 0.320000 sr} bdef
/c6 { 1.000000 0.260000 0.820000 sr} bdef
/c7 { 0.000000 0.820000 0.820000 sr} bdef
c0
1 j
1 sg
   0    0 7469 5603 PR
8.33333 w
0 4566 5788 0 0 -4566 971 4986 4 MP
PP
-5788 0 0 4566 5788 0 0 -4566 971 4986 5 MP stroke
5.55556 w
DO
0 sg
 971 4986 mt  971  420 L
 971  420 mt  971  420 L
2128 4986 mt 2128  420 L
2128  420 mt 2128  420 L
3286 4986 mt 3286  420 L
3286  420 mt 3286  420 L
4443 4986 mt 4443  420 L
4443  420 mt 4443  420 L
5601 4986 mt 5601  420 L
5601  420 mt 5601  420 L
6759 4986 mt 6759  420 L
6759  420 mt 6759  420 L
 971 4986 mt 6759 4986 L
6759 4986 mt 6759 4986 L
 971 3844 mt 6759 3844 L
6759 3844 mt 6759 3844 L
 971 2703 mt 6759 2703 L
6759 2703 mt 6759 2703 L
 971 1561 mt 6759 1561 L
6759 1561 mt 6759 1561 L
 971  420 mt 6759  420 L
6759  420 mt 6759  420 L
SO
8.33333 w
 971 4986 mt 6759 4986 L
 971  420 mt 6759  420 L
 971 4986 mt  971  420 L
6759 4986 mt 6759  420 L
 971 4986 mt 6759 4986 L
 971 4986 mt  971  420 L
 971 4986 mt  971 4957 L
 971  420 mt  971  448 L
DO
 971 4986 mt  971  420 L
 971  420 mt  971  420 L
SO
 971 4986 mt  971 4928 L
 971  420 mt  971  477 L
%%IncludeResource: font Helvetica
/Helvetica /ISOLatin1Encoding 200 FMSR

 823 5282 mt 
(10) s
%%IncludeResource: font Helvetica
/Helvetica /ISOLatin1Encoding 133.333 FMSR

1045 5158 mt 
(0) s
1319 4986 mt 1319 4957 L
1319  420 mt 1319  448 L
DO
1319 4986 mt 1319  420 L
1319  420 mt 1319  420 L
SO
1523 4986 mt 1523 4957 L
1523  420 mt 1523  448 L
DO
1523 4986 mt 1523  420 L
1523  420 mt 1523  420 L
SO
1667 4986 mt 1667 4957 L
1667  420 mt 1667  448 L
DO
1667 4986 mt 1667  420 L
1667  420 mt 1667  420 L
SO
1780 4986 mt 1780 4957 L
1780  420 mt 1780  448 L
DO
1780 4986 mt 1780  420 L
1780  420 mt 1780  420 L
SO
1871 4986 mt 1871 4957 L
1871  420 mt 1871  448 L
DO
1871 4986 mt 1871  420 L
1871  420 mt 1871  420 L
SO
1949 4986 mt 1949 4957 L
1949  420 mt 1949  448 L
DO
1949 4986 mt 1949  420 L
1949  420 mt 1949  420 L
SO
2016 4986 mt 2016 4957 L
2016  420 mt 2016  448 L
DO
2016 4986 mt 2016  420 L
2016  420 mt 2016  420 L
SO
2075 4986 mt 2075 4957 L
2075  420 mt 2075  448 L
DO
2075 4986 mt 2075  420 L
2075  420 mt 2075  420 L
SO
2128 4986 mt 2128 4957 L
2128  420 mt 2128  448 L
DO
2128 4986 mt 2128  420 L
2128  420 mt 2128  420 L
SO
2128 4986 mt 2128 4928 L
2128  420 mt 2128  477 L
%%IncludeResource: font Helvetica
/Helvetica /ISOLatin1Encoding 200 FMSR

1980 5282 mt 
(10) s
%%IncludeResource: font Helvetica
/Helvetica /ISOLatin1Encoding 133.333 FMSR

2202 5158 mt 
(1) s
2477 4986 mt 2477 4957 L
2477  420 mt 2477  448 L
DO
2477 4986 mt 2477  420 L
2477  420 mt 2477  420 L
SO
2680 4986 mt 2680 4957 L
2680  420 mt 2680  448 L
DO
2680 4986 mt 2680  420 L
2680  420 mt 2680  420 L
SO
2825 4986 mt 2825 4957 L
2825  420 mt 2825  448 L
DO
2825 4986 mt 2825  420 L
2825  420 mt 2825  420 L
SO
2937 4986 mt 2937 4957 L
2937  420 mt 2937  448 L
DO
2937 4986 mt 2937  420 L
2937  420 mt 2937  420 L
SO
3029 4986 mt 3029 4957 L
3029  420 mt 3029  448 L
DO
3029 4986 mt 3029  420 L
3029  420 mt 3029  420 L
SO
3106 4986 mt 3106 4957 L
3106  420 mt 3106  448 L
DO
3106 4986 mt 3106  420 L
3106  420 mt 3106  420 L
SO
3174 4986 mt 3174 4957 L
3174  420 mt 3174  448 L
DO
3174 4986 mt 3174  420 L
3174  420 mt 3174  420 L
SO
3233 4986 mt 3233 4957 L
3233  420 mt 3233  448 L
DO
3233 4986 mt 3233  420 L
3233  420 mt 3233  420 L
SO
3286 4986 mt 3286 4957 L
3286  420 mt 3286  448 L
DO
3286 4986 mt 3286  420 L
3286  420 mt 3286  420 L
SO
3286 4986 mt 3286 4928 L
3286  420 mt 3286  477 L
%%IncludeResource: font Helvetica
/Helvetica /ISOLatin1Encoding 200 FMSR

3138 5282 mt 
(10) s
%%IncludeResource: font Helvetica
/Helvetica /ISOLatin1Encoding 133.333 FMSR

3360 5158 mt 
(2) s
3634 4986 mt 3634 4957 L
3634  420 mt 3634  448 L
DO
3634 4986 mt 3634  420 L
3634  420 mt 3634  420 L
SO
3838 4986 mt 3838 4957 L
3838  420 mt 3838  448 L
DO
3838 4986 mt 3838  420 L
3838  420 mt 3838  420 L
SO
3983 4986 mt 3983 4957 L
3983  420 mt 3983  448 L
DO
3983 4986 mt 3983  420 L
3983  420 mt 3983  420 L
SO
4095 4986 mt 4095 4957 L
4095  420 mt 4095  448 L
DO
4095 4986 mt 4095  420 L
4095  420 mt 4095  420 L
SO
4186 4986 mt 4186 4957 L
4186  420 mt 4186  448 L
DO
4186 4986 mt 4186  420 L
4186  420 mt 4186  420 L
SO
4264 4986 mt 4264 4957 L
4264  420 mt 4264  448 L
DO
4264 4986 mt 4264  420 L
4264  420 mt 4264  420 L
SO
4331 4986 mt 4331 4957 L
4331  420 mt 4331  448 L
DO
4331 4986 mt 4331  420 L
4331  420 mt 4331  420 L
SO
4390 4986 mt 4390 4957 L
4390  420 mt 4390  448 L
DO
4390 4986 mt 4390  420 L
4390  420 mt 4390  420 L
SO
4443 4986 mt 4443 4957 L
4443  420 mt 4443  448 L
DO
4443 4986 mt 4443  420 L
4443  420 mt 4443  420 L
SO
4443 4986 mt 4443 4928 L
4443  420 mt 4443  477 L
%%IncludeResource: font Helvetica
/Helvetica /ISOLatin1Encoding 200 FMSR

4295 5282 mt 
(10) s
%%IncludeResource: font Helvetica
/Helvetica /ISOLatin1Encoding 133.333 FMSR

4517 5158 mt 
(3) s
4792 4986 mt 4792 4957 L
4792  420 mt 4792  448 L
DO
4792 4986 mt 4792  420 L
4792  420 mt 4792  420 L
SO
4996 4986 mt 4996 4957 L
4996  420 mt 4996  448 L
DO
4996 4986 mt 4996  420 L
4996  420 mt 4996  420 L
SO
5140 4986 mt 5140 4957 L
5140  420 mt 5140  448 L
DO
5140 4986 mt 5140  420 L
5140  420 mt 5140  420 L
SO
5252 4986 mt 5252 4957 L
5252  420 mt 5252  448 L
DO
5252 4986 mt 5252  420 L
5252  420 mt 5252  420 L
SO
5344 4986 mt 5344 4957 L
5344  420 mt 5344  448 L
DO
5344 4986 mt 5344  420 L
5344  420 mt 5344  420 L
SO
5422 4986 mt 5422 4957 L
5422  420 mt 5422  448 L
DO
5422 4986 mt 5422  420 L
5422  420 mt 5422  420 L
SO
5489 4986 mt 5489 4957 L
5489  420 mt 5489  448 L
DO
5489 4986 mt 5489  420 L
5489  420 mt 5489  420 L
SO
5548 4986 mt 5548 4957 L
5548  420 mt 5548  448 L
DO
5548 4986 mt 5548  420 L
5548  420 mt 5548  420 L
SO
5601 4986 mt 5601 4957 L
5601  420 mt 5601  448 L
DO
5601 4986 mt 5601  420 L
5601  420 mt 5601  420 L
SO
5601 4986 mt 5601 4928 L
5601  420 mt 5601  477 L
%%IncludeResource: font Helvetica
/Helvetica /ISOLatin1Encoding 200 FMSR

5453 5282 mt 
(10) s
%%IncludeResource: font Helvetica
/Helvetica /ISOLatin1Encoding 133.333 FMSR

5675 5158 mt 
(4) s
5949 4986 mt 5949 4957 L
5949  420 mt 5949  448 L
DO
5949 4986 mt 5949  420 L
5949  420 mt 5949  420 L
SO
6153 4986 mt 6153 4957 L
6153  420 mt 6153  448 L
DO
6153 4986 mt 6153  420 L
6153  420 mt 6153  420 L
SO
6298 4986 mt 6298 4957 L
6298  420 mt 6298  448 L
DO
6298 4986 mt 6298  420 L
6298  420 mt 6298  420 L
SO
6410 4986 mt 6410 4957 L
6410  420 mt 6410  448 L
DO
6410 4986 mt 6410  420 L
6410  420 mt 6410  420 L
SO
6502 4986 mt 6502 4957 L
6502  420 mt 6502  448 L
DO
6502 4986 mt 6502  420 L
6502  420 mt 6502  420 L
SO
6579 4986 mt 6579 4957 L
6579  420 mt 6579  448 L
DO
6579 4986 mt 6579  420 L
6579  420 mt 6579  420 L
SO
6646 4986 mt 6646 4957 L
6646  420 mt 6646  448 L
DO
6646 4986 mt 6646  420 L
6646  420 mt 6646  420 L
SO
6706 4986 mt 6706 4957 L
6706  420 mt 6706  448 L
DO
6706 4986 mt 6706  420 L
6706  420 mt 6706  420 L
SO
6759 4986 mt 6759 4957 L
6759  420 mt 6759  448 L
DO
6759 4986 mt 6759  420 L
6759  420 mt 6759  420 L
SO
6759 4986 mt 6759 4928 L
6759  420 mt 6759  477 L
%%IncludeResource: font Helvetica
/Helvetica /ISOLatin1Encoding 200 FMSR

6611 5282 mt 
(10) s
%%IncludeResource: font Helvetica
/Helvetica /ISOLatin1Encoding 133.333 FMSR

6833 5158 mt 
(5) s
 971 4986 mt  999 4986 L
6759 4986 mt 6730 4986 L
DO
 971 4986 mt 6759 4986 L
6759 4986 mt 6759 4986 L
SO
 971 4986 mt 1028 4986 L
6759 4986 mt 6701 4986 L
%%IncludeResource: font Helvetica
/Helvetica /ISOLatin1Encoding 200 FMSR

 627 5060 mt 
(10) s
%%IncludeResource: font Helvetica
/Helvetica /ISOLatin1Encoding 133.333 FMSR

 849 4936 mt 
(0) s
 971 4642 mt  999 4642 L
6759 4642 mt 6730 4642 L
DO
 971 4642 mt 6759 4642 L
6759 4642 mt 6759 4642 L
SO
 971 4441 mt  999 4441 L
6759 4441 mt 6730 4441 L
DO
 971 4441 mt 6759 4441 L
6759 4441 mt 6759 4441 L
SO
 971 4298 mt  999 4298 L
6759 4298 mt 6730 4298 L
DO
 971 4298 mt 6759 4298 L
6759 4298 mt 6759 4298 L
SO
 971 4188 mt  999 4188 L
6759 4188 mt 6730 4188 L
DO
 971 4188 mt 6759 4188 L
6759 4188 mt 6759 4188 L
SO
 971 4097 mt  999 4097 L
6759 4097 mt 6730 4097 L
DO
 971 4097 mt 6759 4097 L
6759 4097 mt 6759 4097 L
SO
 971 4021 mt  999 4021 L
6759 4021 mt 6730 4021 L
DO
 971 4021 mt 6759 4021 L
6759 4021 mt 6759 4021 L
SO
 971 3955 mt  999 3955 L
6759 3955 mt 6730 3955 L
DO
 971 3955 mt 6759 3955 L
6759 3955 mt 6759 3955 L
SO
 971 3896 mt  999 3896 L
6759 3896 mt 6730 3896 L
DO
 971 3896 mt 6759 3896 L
6759 3896 mt 6759 3896 L
SO
 971 3844 mt  999 3844 L
6759 3844 mt 6730 3844 L
DO
 971 3844 mt 6759 3844 L
6759 3844 mt 6759 3844 L
SO
 971 3844 mt 1028 3844 L
6759 3844 mt 6701 3844 L
%%IncludeResource: font Helvetica
/Helvetica /ISOLatin1Encoding 200 FMSR

 627 3918 mt 
(10) s
%%IncludeResource: font Helvetica
/Helvetica /ISOLatin1Encoding 133.333 FMSR

 849 3794 mt 
(1) s
 971 3500 mt  999 3500 L
6759 3500 mt 6730 3500 L
DO
 971 3500 mt 6759 3500 L
6759 3500 mt 6759 3500 L
SO
 971 3299 mt  999 3299 L
6759 3299 mt 6730 3299 L
DO
 971 3299 mt 6759 3299 L
6759 3299 mt 6759 3299 L
SO
 971 3157 mt  999 3157 L
6759 3157 mt 6730 3157 L
DO
 971 3157 mt 6759 3157 L
6759 3157 mt 6759 3157 L
SO
 971 3046 mt  999 3046 L
6759 3046 mt 6730 3046 L
DO
 971 3046 mt 6759 3046 L
6759 3046 mt 6759 3046 L
SO
 971 2956 mt  999 2956 L
6759 2956 mt 6730 2956 L
DO
 971 2956 mt 6759 2956 L
6759 2956 mt 6759 2956 L
SO
 971 2879 mt  999 2879 L
6759 2879 mt 6730 2879 L
DO
 971 2879 mt 6759 2879 L
6759 2879 mt 6759 2879 L
SO
 971 2813 mt  999 2813 L
6759 2813 mt 6730 2813 L
DO
 971 2813 mt 6759 2813 L
6759 2813 mt 6759 2813 L
SO
 971 2755 mt  999 2755 L
6759 2755 mt 6730 2755 L
DO
 971 2755 mt 6759 2755 L
6759 2755 mt 6759 2755 L
SO
 971 2703 mt  999 2703 L
6759 2703 mt 6730 2703 L
DO
 971 2703 mt 6759 2703 L
6759 2703 mt 6759 2703 L
SO
 971 2703 mt 1028 2703 L
6759 2703 mt 6701 2703 L
%%IncludeResource: font Helvetica
/Helvetica /ISOLatin1Encoding 200 FMSR

 627 2777 mt 
(10) s
%%IncludeResource: font Helvetica
/Helvetica /ISOLatin1Encoding 133.333 FMSR

 849 2653 mt 
(2) s
 971 2359 mt  999 2359 L
6759 2359 mt 6730 2359 L
DO
 971 2359 mt 6759 2359 L
6759 2359 mt 6759 2359 L
SO
 971 2158 mt  999 2158 L
6759 2158 mt 6730 2158 L
DO
 971 2158 mt 6759 2158 L
6759 2158 mt 6759 2158 L
SO
 971 2015 mt  999 2015 L
6759 2015 mt 6730 2015 L
DO
 971 2015 mt 6759 2015 L
6759 2015 mt 6759 2015 L
SO
 971 1905 mt  999 1905 L
6759 1905 mt 6730 1905 L
DO
 971 1905 mt 6759 1905 L
6759 1905 mt 6759 1905 L
SO
 971 1814 mt  999 1814 L
6759 1814 mt 6730 1814 L
DO
 971 1814 mt 6759 1814 L
6759 1814 mt 6759 1814 L
SO
 971 1738 mt  999 1738 L
6759 1738 mt 6730 1738 L
DO
 971 1738 mt 6759 1738 L
6759 1738 mt 6759 1738 L
SO
 971 1672 mt  999 1672 L
6759 1672 mt 6730 1672 L
DO
 971 1672 mt 6759 1672 L
6759 1672 mt 6759 1672 L
SO
 971 1613 mt  999 1613 L
6759 1613 mt 6730 1613 L
DO
 971 1613 mt 6759 1613 L
6759 1613 mt 6759 1613 L
SO
 971 1561 mt  999 1561 L
6759 1561 mt 6730 1561 L
DO
 971 1561 mt 6759 1561 L
6759 1561 mt 6759 1561 L
SO
 971 1561 mt 1028 1561 L
6759 1561 mt 6701 1561 L
%%IncludeResource: font Helvetica
/Helvetica /ISOLatin1Encoding 200 FMSR

 627 1635 mt 
(10) s
%%IncludeResource: font Helvetica
/Helvetica /ISOLatin1Encoding 133.333 FMSR

 849 1511 mt 
(3) s
 971 1217 mt  999 1217 L
6759 1217 mt 6730 1217 L
DO
 971 1217 mt 6759 1217 L
6759 1217 mt 6759 1217 L
SO
 971 1016 mt  999 1016 L
6759 1016 mt 6730 1016 L
DO
 971 1016 mt 6759 1016 L
6759 1016 mt 6759 1016 L
SO
 971  874 mt  999  874 L
6759  874 mt 6730  874 L
DO
 971  874 mt 6759  874 L
6759  874 mt 6759  874 L
SO
 971  763 mt  999  763 L
6759  763 mt 6730  763 L
DO
 971  763 mt 6759  763 L
6759  763 mt 6759  763 L
SO
 971  673 mt  999  673 L
6759  673 mt 6730  673 L
DO
 971  673 mt 6759  673 L
6759  673 mt 6759  673 L
SO
 971  596 mt  999  596 L
6759  596 mt 6730  596 L
DO
 971  596 mt 6759  596 L
6759  596 mt 6759  596 L
SO
 971  530 mt  999  530 L
6759  530 mt 6730  530 L
DO
 971  530 mt 6759  530 L
6759  530 mt 6759  530 L
SO
 971  472 mt  999  472 L
6759  472 mt 6730  472 L
DO
 971  472 mt 6759  472 L
6759  472 mt 6759  472 L
SO
 971  420 mt  999  420 L
6759  420 mt 6730  420 L
DO
 971  420 mt 6759  420 L
6759  420 mt 6759  420 L
SO
 971  420 mt 1028  420 L
6759  420 mt 6701  420 L
%%IncludeResource: font Helvetica
/Helvetica /ISOLatin1Encoding 200 FMSR

 627  494 mt 
(10) s
%%IncludeResource: font Helvetica
/Helvetica /ISOLatin1Encoding 133.333 FMSR

 849  370 mt 
(4) s
 971 4986 mt 6759 4986 L
 971  420 mt 6759  420 L
 971 4986 mt  971  420 L
6759 4986 mt 6759  420 L
gs 971 420 5789 4567 MR c np
33.3333 w
/c8 { 0.000000 0.000000 1.000000 sr} bdef
c8
348 20 349 19 348 18 349 17 348 17 349 16 348 19 349 18 
348 26 124 7 5 0 5 1 6 0 5 0 5 0 5 1 
6 0 5 1 6 0 5 2 6 0 6 2 5 0 6 3 
6 1 6 1 6 0 6 0 6 0 6 1 7 0 6 3 
7 0 6 0 7 3 7 2 7 0 6 0 7 1 8 0 
7 1 7 0 8 1 7 1 8 0 8 4 8 0 8 2 
8 1 8 3 9 2 8 0 9 2 9 0 9 0 9 2 
9 0 10 0 10 1 10 1 10 4 10 2 11 0 11 1 
11 1 11 0 12 1 11 0 13 3 12 0 13 1 13 1 
13 1 14 0 14 6 15 2 15 12 15 1 16 1 17 1 
17 5 17 2 19 2 19 15 19 2 21 14 21 1 23 1 
23 0 24 4 26 10 27 8 29 14 31 4 32 25 35 10 
37 27 40 1 44 0 2176 3480 100 MP stroke
48 15 53 64 59 21 67 3 78 31 91 10 113 1 144 39 
204 108 348 27 971 3161 11 MP stroke
/c9 { 1.000000 0.000000 0.000000 sr} bdef
c9
348 12 349 11 348 11 349 12 348 13 349 14 348 21 349 23 
348 30 124 13 5 1 5 0 6 5 5 0 5 0 5 0 
6 0 5 0 6 0 5 0 6 1 6 0 5 0 6 0 
6 0 6 0 6 4 6 0 6 0 6 0 7 0 6 1 
7 0 6 0 7 1 7 1 7 2 6 1 7 0 8 0 
7 1 7 0 8 1 7 1 8 1 8 1 8 0 8 2 
8 1 8 0 9 1 8 0 9 2 9 0 9 0 9 1 
9 0 10 0 10 2 10 1 10 1 10 0 11 1 11 1 
11 1 11 3 12 0 11 0 13 3 12 0 13 1 13 1 
13 1 14 2 14 3 15 0 15 4 15 1 16 3 17 2 
17 1 17 3 19 2 19 0 19 0 21 4 21 4 23 0 
23 6 24 2 26 10 27 0 29 4 31 1 32 2 35 5 
37 2 40 0 44 11 2176 3448 100 MP stroke
48 23 53 12 59 10 67 11 78 6 91 7 113 39 144 7 
204 29 348 29 971 3275 11 MP stroke
/c10 { 0.000000 1.000000 1.000000 sr} bdef
c10
348 24 349 23 348 23 349 20 348 20 349 19 348 19 349 18 
348 16 124 6 5 0 5 0 6 0 5 1 5 0 5 0 
6 0 5 0 6 1 5 0 6 0 6 0 5 0 6 0 
6 0 6 1 6 0 6 0 6 1 6 0 7 1 6 1 
7 0 6 0 7 1 7 0 7 0 6 0 7 0 8 1 
7 0 7 1 8 0 7 0 8 0 8 0 8 0 8 1 
8 1 8 0 9 1 8 1 9 1 9 0 9 1 9 0 
9 2 10 0 10 0 10 0 10 1 10 0 11 1 11 0 
11 0 11 0 12 1 11 2 13 1 12 0 13 1 13 0 
13 1 14 1 14 1 15 3 15 0 15 0 16 0 17 2 
17 0 17 0 19 1 19 0 19 1 21 0 21 1 23 3 
23 1 24 0 26 1 27 0 29 2 31 1 32 1 35 1 
37 3 40 2 44 2 2176 3857 100 MP stroke
48 1 53 2 59 0 67 0 78 4 91 7 113 22 144 371 
204 7 348 24 971 3419 11 MP stroke
/c11 { 1.000000 0.000000 1.000000 sr} bdef
c11
348 25 349 23 348 23 349 20 348 20 349 21 348 19 349 18 
348 21 124 6 5 0 5 0 6 0 5 0 5 0 5 1 
6 0 5 0 6 1 5 0 6 0 6 0 5 0 6 0 
6 1 6 1 6 0 6 0 6 1 6 0 7 0 6 0 
7 0 6 0 7 1 7 0 7 0 6 0 7 0 8 0 
7 1 7 0 8 0 7 0 8 0 8 0 8 1 8 0 
8 0 8 0 9 1 8 1 9 1 9 1 9 0 9 1 
9 1 10 2 10 0 10 1 10 1 10 0 11 1 11 0 
11 1 11 1 12 0 11 1 13 0 12 0 13 0 13 3 
13 1 14 1 14 1 15 1 15 0 15 0 16 1 17 1 
17 1 17 0 19 1 19 1 19 0 21 2 21 1 23 0 
23 1 24 1 26 5 27 2 29 2 31 2 32 5 35 0 
37 0 40 7 44 0 2176 3840 100 MP stroke
48 2 53 14 59 13 67 0 78 8 91 26 113 89 144 166 
204 200 348 14 971 3308 11 MP stroke
DA
c8
348 31 349 29 348 28 349 26 348 26 349 25 348 28 349 31 
348 30 124 15 5 2 5 0 6 1 5 1 5 1 5 1 
6 2 5 2 6 1 5 1 6 3 6 0 5 1 6 1 
6 0 6 1 6 0 6 3 6 3 6 1 7 0 6 2 
7 0 6 0 7 1 7 0 7 1 6 0 7 0 8 0 
7 3 7 3 8 0 7 0 8 0 8 1 8 3 8 4 
8 3 8 1 9 0 8 2 9 3 9 8 9 0 9 2 
9 7 10 2 10 11 10 1 10 3 10 8 11 2 11 7 
11 6 11 11 12 0 11 0 13 5 12 1 13 2 13 4 
13 1 14 2 14 1 15 5 15 3 15 0 16 0 17 0 
17 5 17 1 19 3 19 5 19 0 21 0 21 24 23 7 
23 0 24 0 26 0 27 0 29 0 31 2 32 0 35 0 
37 10 40 2 44 0 2176 1033 100 MP stroke
48 0 53 44 59 23 67 9 78 29 91 113 113 8 144 36 
204 7 348 96 971 668 11 MP stroke
/c12 { 0.000000 1.000000 0.000000 sr} bdef
c12
348 5 349 341 348 1 349 1 348 1 349 1 348 2 349 3 
348 3 124 1 5 0 5 0 6 0 5 0 5 0 5 0 
6 0 5 0 6 0 5 0 6 0 6 0 5 1 6 0 
6 0 6 0 6 0 6 0 6 0 6 0 7 1 6 0 
7 0 6 0 7 0 7 0 7 0 6 0 7 0 8 1 
7 0 7 0 8 0 7 0 8 1 8 0 8 0 8 0 
8 0 8 0 9 0 8 1 9 0 9 0 9 0 9 0 
9 0 10 0 10 1 10 0 10 1 10 0 11 0 11 0 
11 1 11 0 12 0 11 0 13 1 12 0 13 0 13 1 
13 1 14 0 14 1 15 0 15 1 15 0 16 0 17 1 
17 1 17 1 19 1 19 0 19 0 21 4 21 1 23 12 
23 1 24 6 26 0 27 5 29 0 31 18 32 5 35 9 
37 20 40 0 44 0 2176 2146 100 MP stroke
48 7 53 26 59 58 67 0 78 0 91 4 113 50 144 90 
204 34 348 24 971 1853 11 MP stroke
gr

33.3333 w
c12
DA
0 sg
%%IncludeResource: font Helvetica
/Helvetica /ISOLatin1Encoding 200 FMSR

3214  261 mt 
(pvalues for BD) s
 418 3100 mt  -90 rotate
(-log) s
90 rotate
%%IncludeResource: font Helvetica
/Helvetica /ISOLatin1Encoding 150 FMSR

 518 2717 mt  -90 rotate
(10) s
90 rotate
%%IncludeResource: font Helvetica
/Helvetica /ISOLatin1Encoding 200 FMSR

 418 2551 mt  -90 rotate
(\(p\)) s
90 rotate
3132 5505 mt 
(sorted list length) s
%%IncludeResource: font Helvetica
/Helvetica /ISOLatin1Encoding 166.667 FMSR

 948 5046 mt 
( ) s
6737  479 mt 
( ) s
SO
8.33333 w
1 sg
0 1854 1752 0 0 -1854 4925 2357 4 MP
PP
-1752 0 0 1854 1752 0 0 -1854 4925 2357 5 MP stroke
5.55556 w
DO
SO
8.33333 w
0 sg
4925 2357 mt 6677 2357 L
4925  503 mt 6677  503 L
4925 2357 mt 4925  503 L
6677 2357 mt 6677  503 L
4925 2357 mt 6677 2357 L
4925 2357 mt 4925  503 L
4925 2357 mt 6677 2357 L
4925  503 mt 6677  503 L
4925 2357 mt 4925  503 L
6677 2357 mt 6677  503 L
%%IncludeResource: font Helvetica
/Helvetica /ISOLatin1Encoding 200 FMSR

5585  756 mt 
(Chi) s
%%IncludeResource: font Helvetica
/Helvetica /ISOLatin1Encoding 150 FMSR

5885  656 mt 
(2) s
gs 4925 503 1753 1855 MR c np
33.3333 w
c8
507 0 5026 671 2 MP stroke
gr

33.3333 w
c8
0 sg
%%IncludeResource: font Helvetica
/Helvetica /ISOLatin1Encoding 200 FMSR

5585 1010 mt 
(SS) s
gs 4925 503 1753 1855 MR c np
c9
507 0 5026 938 2 MP stroke
gr

c9
0 sg
5585 1256 mt 
(plink fastepi) s
gs 4925 503 1753 1855 MR c np
c10
507 0 5026 1184 2 MP stroke
gr

c10
0 sg
5585 1502 mt 
(GBOOST) s
gs 4925 503 1753 1855 MR c np
c11
507 0 5026 1430 2 MP stroke
gr

c11
0 sg
5585 1747 mt 
(SHEsisEpi) s
gs 4925 503 1753 1855 MR c np
DA
c8
507 0 5026 1675 2 MP stroke
SO
gr

c8
0 sg
5585 1993 mt 
(Epiblaster) s
gs 4925 503 1753 1855 MR c np
DA
c9
507 0 5026 1921 2 MP stroke
SO
gr

c9
0 sg
5585 2275 mt 
(2Chi) s
%%IncludeResource: font Helvetica
/Helvetica /ISOLatin1Encoding 150 FMSR

5996 2175 mt 
(2) s
gs 4925 503 1753 1855 MR c np
DA
c12
507 0 5026 2188 2 MP stroke
SO
8.33333 w
gr

8.33333 w
c12

end %%Color Dict

eplot
%%EndObject

epage
end

showpage

%%Trailer
%%EOF
