%!PS-Adobe-2.0 EPSF-1.2
%%Creator: MATLAB, The MathWorks, Inc. Version 8.0.0.783 (R2012b). Operating System: Linux 3.7.10-1.16-desktop #1 SMP PREEMPT Fri May 31 20:21:23 UTC 2013 (97c14ba) x86_64.
%%Title: /home/herman/Documents/papers/gwispr-results/results_RA/pvalue_RA.eps
%%CreationDate: 01/09/2014  17:58:18
%%DocumentNeededFonts: Helvetica
%%DocumentProcessColors: Cyan Magenta Yellow Black
%%Extensions: CMYK
%%Pages: 1
%%BoundingBox:    87   255   490   589
%%EndComments

%%BeginProlog
% MathWorks dictionary
/MathWorks 160 dict begin
% definition operators
/bdef {bind def} bind def
/ldef {load def} bind def
/xdef {exch def} bdef
/xstore {exch store} bdef
% operator abbreviations
/c  /clip ldef
/cc /concat ldef
/cp /closepath ldef
/gr /grestore ldef
/gs /gsave ldef
/mt /moveto ldef
/np /newpath ldef
/cm /currentmatrix ldef
/sm /setmatrix ldef
/rm /rmoveto ldef
/rl /rlineto ldef
/s {show newpath} bdef
/sc {setcmykcolor} bdef
/sr /setrgbcolor ldef
/sg /setgray ldef
/w /setlinewidth ldef
/j /setlinejoin ldef
/cap /setlinecap ldef
/rc {rectclip} bdef
/rf {rectfill} bdef
% page state control
/pgsv () def
/bpage {/pgsv save def} bdef
/epage {pgsv restore} bdef
/bplot /gsave ldef
/eplot {stroke grestore} bdef
% orientation switch
/portraitMode 0 def /landscapeMode 1 def /rotateMode 2 def
% coordinate system mappings
/dpi2point 0 def
% font control
/FontSize 0 def
/FMS {/FontSize xstore findfont [FontSize 0 0 FontSize neg 0 0]
  makefont setfont} bdef
/reencode {exch dup where {pop load} {pop StandardEncoding} ifelse
  exch dup 3 1 roll findfont dup length dict begin
  { 1 index /FID ne {def}{pop pop} ifelse } forall
  /Encoding exch def currentdict end definefont pop} bdef
/isroman {findfont /CharStrings get /Agrave known} bdef
/FMSR {3 1 roll 1 index dup isroman {reencode} {pop pop} ifelse
  exch FMS} bdef
/csm {1 dpi2point div -1 dpi2point div scale neg translate
 dup landscapeMode eq {pop -90 rotate}
  {rotateMode eq {90 rotate} if} ifelse} bdef
% line types: solid, dotted, dashed, dotdash
/SO { [] 0 setdash } bdef
/DO { [.5 dpi2point mul 4 dpi2point mul] 0 setdash } bdef
/DA { [6 dpi2point mul] 0 setdash } bdef
/DD { [.5 dpi2point mul 4 dpi2point mul 6 dpi2point mul 4
  dpi2point mul] 0 setdash } bdef
% macros for lines and objects
/L {lineto stroke} bdef
/MP {3 1 roll moveto 1 sub {rlineto} repeat} bdef
/AP {{rlineto} repeat} bdef
/PDlw -1 def
/W {/PDlw currentlinewidth def setlinewidth} def
/PP {closepath eofill} bdef
/DP {closepath stroke} bdef
/MR {4 -2 roll moveto dup  0 exch rlineto exch 0 rlineto
  neg 0 exch rlineto closepath} bdef
/FR {MR stroke} bdef
/PR {MR fill} bdef
/L1i {{currentfile picstr readhexstring pop} image} bdef
/tMatrix matrix def
/MakeOval {newpath tMatrix currentmatrix pop translate scale
0 0 1 0 360 arc tMatrix setmatrix} bdef
/FO {MakeOval stroke} bdef
/PO {MakeOval fill} bdef
/PD {currentlinewidth 2 div 0 360 arc fill
   PDlw -1 eq not {PDlw w /PDlw -1 def} if} def
/FA {newpath tMatrix currentmatrix pop translate scale
  0 0 1 5 -2 roll arc tMatrix setmatrix stroke} bdef
/PA {newpath tMatrix currentmatrix pop	translate 0 0 moveto scale
  0 0 1 5 -2 roll arc closepath tMatrix setmatrix fill} bdef
/FAn {newpath tMatrix currentmatrix pop translate scale
  0 0 1 5 -2 roll arcn tMatrix setmatrix stroke} bdef
/PAn {newpath tMatrix currentmatrix pop translate 0 0 moveto scale
  0 0 1 5 -2 roll arcn closepath tMatrix setmatrix fill} bdef
/vradius 0 def /hradius 0 def /lry 0 def
/lrx 0 def /uly 0 def /ulx 0 def /rad 0 def
/MRR {/vradius xdef /hradius xdef /lry xdef /lrx xdef /uly xdef
  /ulx xdef newpath tMatrix currentmatrix pop ulx hradius add uly
  vradius add translate hradius vradius scale 0 0 1 180 270 arc 
  tMatrix setmatrix lrx hradius sub uly vradius add translate
  hradius vradius scale 0 0 1 270 360 arc tMatrix setmatrix
  lrx hradius sub lry vradius sub translate hradius vradius scale
  0 0 1 0 90 arc tMatrix setmatrix ulx hradius add lry vradius sub
  translate hradius vradius scale 0 0 1 90 180 arc tMatrix setmatrix
  closepath} bdef
/FRR {MRR stroke } bdef
/PRR {MRR fill } bdef
/MlrRR {/lry xdef /lrx xdef /uly xdef /ulx xdef /rad lry uly sub 2 div def
  newpath tMatrix currentmatrix pop ulx rad add uly rad add translate
  rad rad scale 0 0 1 90 270 arc tMatrix setmatrix lrx rad sub lry rad
  sub translate rad rad scale 0 0 1 270 90 arc tMatrix setmatrix
  closepath} bdef
/FlrRR {MlrRR stroke } bdef
/PlrRR {MlrRR fill } bdef
/MtbRR {/lry xdef /lrx xdef /uly xdef /ulx xdef /rad lrx ulx sub 2 div def
  newpath tMatrix currentmatrix pop ulx rad add uly rad add translate
  rad rad scale 0 0 1 180 360 arc tMatrix setmatrix lrx rad sub lry rad
  sub translate rad rad scale 0 0 1 0 180 arc tMatrix setmatrix
  closepath} bdef
/FtbRR {MtbRR stroke } bdef
/PtbRR {MtbRR fill } bdef
/stri 6 array def /dtri 6 array def
/smat 6 array def /dmat 6 array def
/tmat1 6 array def /tmat2 6 array def /dif 3 array def
/asub {/ind2 exch def /ind1 exch def dup dup
  ind1 get exch ind2 get sub exch } bdef
/tri_to_matrix {
  2 0 asub 3 1 asub 4 0 asub 5 1 asub
  dup 0 get exch 1 get 7 -1 roll astore } bdef
/compute_transform {
  dmat dtri tri_to_matrix tmat1 invertmatrix 
  smat stri tri_to_matrix tmat2 concatmatrix } bdef
/ds {stri astore pop} bdef
/dt {dtri astore pop} bdef
/db {2 copy /cols xdef /rows xdef mul dup 3 mul string
  currentfile exch readhexstring pop
  dup 0 3 index getinterval /rbmap xdef
  dup 2 index dup getinterval /gbmap xdef
  1 index dup 2 mul exch getinterval /bbmap xdef pop pop}bdef
/it {gs np dtri aload pop moveto lineto lineto cp c
  cols rows 8 compute_transform 
  rbmap gbmap bbmap true 3 colorimage gr}bdef
/il {newpath moveto lineto stroke}bdef
currentdict end def
%%EndProlog

%%BeginSetup
MathWorks begin

0 cap

end
%%EndSetup

%%Page: 1 1
%%BeginPageSetup
%%PageBoundingBox:    87   255   490   589
MathWorks begin
bpage
%%EndPageSetup

%%BeginObject: obj1
bplot

/dpi2point 16.6667 def
portraitMode 1266 9800 csm

  187   -28  6714  5576 MR c np
88 dict begin %Colortable dictionary
/c0 { 0.000000 0.000000 0.000000 sr} bdef
/c1 { 1.000000 1.000000 1.000000 sr} bdef
/c2 { 0.900000 0.000000 0.000000 sr} bdef
/c3 { 0.000000 0.820000 0.000000 sr} bdef
/c4 { 0.000000 0.000000 0.800000 sr} bdef
/c5 { 0.910000 0.820000 0.320000 sr} bdef
/c6 { 1.000000 0.260000 0.820000 sr} bdef
/c7 { 0.000000 0.820000 0.820000 sr} bdef
c0
1 j
1 sg
   0    0 7389 5563 PR
8.33333 w
0 4533 5726 0 0 -4533 960 4950 4 MP
PP
-5726 0 0 4533 5726 0 0 -4533 960 4950 5 MP stroke
5.55556 w
DO
0 sg
 960 4950 mt  960  417 L
 960  417 mt  960  417 L
2105 4950 mt 2105  417 L
2105  417 mt 2105  417 L
3250 4950 mt 3250  417 L
3250  417 mt 3250  417 L
4395 4950 mt 4395  417 L
4395  417 mt 4395  417 L
5540 4950 mt 5540  417 L
5540  417 mt 5540  417 L
6686 4950 mt 6686  417 L
6686  417 mt 6686  417 L
 960 4950 mt 6686 4950 L
6686 4950 mt 6686 4950 L
 960 3816 mt 6686 3816 L
6686 3816 mt 6686 3816 L
 960 2683 mt 6686 2683 L
6686 2683 mt 6686 2683 L
 960 1550 mt 6686 1550 L
6686 1550 mt 6686 1550 L
 960  417 mt 6686  417 L
6686  417 mt 6686  417 L
SO
8.33333 w
 960 4950 mt 6686 4950 L
 960  417 mt 6686  417 L
 960 4950 mt  960  417 L
6686 4950 mt 6686  417 L
 960 4950 mt 6686 4950 L
 960 4950 mt  960  417 L
 960 4950 mt  960 4921 L
 960  417 mt  960  445 L
DO
 960 4950 mt  960  417 L
 960  417 mt  960  417 L
SO
 960 4950 mt  960 4892 L
 960  417 mt  960  474 L
%%IncludeResource: font Helvetica
/Helvetica /ISOLatin1Encoding 200 FMSR

 812 5246 mt 
(10) s
%%IncludeResource: font Helvetica
/Helvetica /ISOLatin1Encoding 133.333 FMSR

1034 5122 mt 
(0) s
1304 4950 mt 1304 4921 L
1304  417 mt 1304  445 L
DO
1304 4950 mt 1304  417 L
1304  417 mt 1304  417 L
SO
1506 4950 mt 1506 4921 L
1506  417 mt 1506  445 L
DO
1506 4950 mt 1506  417 L
1506  417 mt 1506  417 L
SO
1649 4950 mt 1649 4921 L
1649  417 mt 1649  445 L
DO
1649 4950 mt 1649  417 L
1649  417 mt 1649  417 L
SO
1760 4950 mt 1760 4921 L
1760  417 mt 1760  445 L
DO
1760 4950 mt 1760  417 L
1760  417 mt 1760  417 L
SO
1851 4950 mt 1851 4921 L
1851  417 mt 1851  445 L
DO
1851 4950 mt 1851  417 L
1851  417 mt 1851  417 L
SO
1927 4950 mt 1927 4921 L
1927  417 mt 1927  445 L
DO
1927 4950 mt 1927  417 L
1927  417 mt 1927  417 L
SO
1994 4950 mt 1994 4921 L
1994  417 mt 1994  445 L
DO
1994 4950 mt 1994  417 L
1994  417 mt 1994  417 L
SO
2052 4950 mt 2052 4921 L
2052  417 mt 2052  445 L
DO
2052 4950 mt 2052  417 L
2052  417 mt 2052  417 L
SO
2105 4950 mt 2105 4921 L
2105  417 mt 2105  445 L
DO
2105 4950 mt 2105  417 L
2105  417 mt 2105  417 L
SO
2105 4950 mt 2105 4892 L
2105  417 mt 2105  474 L
%%IncludeResource: font Helvetica
/Helvetica /ISOLatin1Encoding 200 FMSR

1957 5246 mt 
(10) s
%%IncludeResource: font Helvetica
/Helvetica /ISOLatin1Encoding 133.333 FMSR

2179 5122 mt 
(1) s
2449 4950 mt 2449 4921 L
2449  417 mt 2449  445 L
DO
2449 4950 mt 2449  417 L
2449  417 mt 2449  417 L
SO
2651 4950 mt 2651 4921 L
2651  417 mt 2651  445 L
DO
2651 4950 mt 2651  417 L
2651  417 mt 2651  417 L
SO
2794 4950 mt 2794 4921 L
2794  417 mt 2794  445 L
DO
2794 4950 mt 2794  417 L
2794  417 mt 2794  417 L
SO
2905 4950 mt 2905 4921 L
2905  417 mt 2905  445 L
DO
2905 4950 mt 2905  417 L
2905  417 mt 2905  417 L
SO
2996 4950 mt 2996 4921 L
2996  417 mt 2996  445 L
DO
2996 4950 mt 2996  417 L
2996  417 mt 2996  417 L
SO
3073 4950 mt 3073 4921 L
3073  417 mt 3073  445 L
DO
3073 4950 mt 3073  417 L
3073  417 mt 3073  417 L
SO
3139 4950 mt 3139 4921 L
3139  417 mt 3139  445 L
DO
3139 4950 mt 3139  417 L
3139  417 mt 3139  417 L
SO
3197 4950 mt 3197 4921 L
3197  417 mt 3197  445 L
DO
3197 4950 mt 3197  417 L
3197  417 mt 3197  417 L
SO
3250 4950 mt 3250 4921 L
3250  417 mt 3250  445 L
DO
3250 4950 mt 3250  417 L
3250  417 mt 3250  417 L
SO
3250 4950 mt 3250 4892 L
3250  417 mt 3250  474 L
%%IncludeResource: font Helvetica
/Helvetica /ISOLatin1Encoding 200 FMSR

3102 5246 mt 
(10) s
%%IncludeResource: font Helvetica
/Helvetica /ISOLatin1Encoding 133.333 FMSR

3324 5122 mt 
(2) s
3595 4950 mt 3595 4921 L
3595  417 mt 3595  445 L
DO
3595 4950 mt 3595  417 L
3595  417 mt 3595  417 L
SO
3796 4950 mt 3796 4921 L
3796  417 mt 3796  445 L
DO
3796 4950 mt 3796  417 L
3796  417 mt 3796  417 L
SO
3939 4950 mt 3939 4921 L
3939  417 mt 3939  445 L
DO
3939 4950 mt 3939  417 L
3939  417 mt 3939  417 L
SO
4050 4950 mt 4050 4921 L
4050  417 mt 4050  445 L
DO
4050 4950 mt 4050  417 L
4050  417 mt 4050  417 L
SO
4141 4950 mt 4141 4921 L
4141  417 mt 4141  445 L
DO
4141 4950 mt 4141  417 L
4141  417 mt 4141  417 L
SO
4218 4950 mt 4218 4921 L
4218  417 mt 4218  445 L
DO
4218 4950 mt 4218  417 L
4218  417 mt 4218  417 L
SO
4284 4950 mt 4284 4921 L
4284  417 mt 4284  445 L
DO
4284 4950 mt 4284  417 L
4284  417 mt 4284  417 L
SO
4343 4950 mt 4343 4921 L
4343  417 mt 4343  445 L
DO
4343 4950 mt 4343  417 L
4343  417 mt 4343  417 L
SO
4395 4950 mt 4395 4921 L
4395  417 mt 4395  445 L
DO
4395 4950 mt 4395  417 L
4395  417 mt 4395  417 L
SO
4395 4950 mt 4395 4892 L
4395  417 mt 4395  474 L
%%IncludeResource: font Helvetica
/Helvetica /ISOLatin1Encoding 200 FMSR

4247 5246 mt 
(10) s
%%IncludeResource: font Helvetica
/Helvetica /ISOLatin1Encoding 133.333 FMSR

4469 5122 mt 
(3) s
4740 4950 mt 4740 4921 L
4740  417 mt 4740  445 L
DO
4740 4950 mt 4740  417 L
4740  417 mt 4740  417 L
SO
4941 4950 mt 4941 4921 L
4941  417 mt 4941  445 L
DO
4941 4950 mt 4941  417 L
4941  417 mt 4941  417 L
SO
5085 4950 mt 5085 4921 L
5085  417 mt 5085  445 L
DO
5085 4950 mt 5085  417 L
5085  417 mt 5085  417 L
SO
5196 4950 mt 5196 4921 L
5196  417 mt 5196  445 L
DO
5196 4950 mt 5196  417 L
5196  417 mt 5196  417 L
SO
5286 4950 mt 5286 4921 L
5286  417 mt 5286  445 L
DO
5286 4950 mt 5286  417 L
5286  417 mt 5286  417 L
SO
5363 4950 mt 5363 4921 L
5363  417 mt 5363  445 L
DO
5363 4950 mt 5363  417 L
5363  417 mt 5363  417 L
SO
5429 4950 mt 5429 4921 L
5429  417 mt 5429  445 L
DO
5429 4950 mt 5429  417 L
5429  417 mt 5429  417 L
SO
5488 4950 mt 5488 4921 L
5488  417 mt 5488  445 L
DO
5488 4950 mt 5488  417 L
5488  417 mt 5488  417 L
SO
5540 4950 mt 5540 4921 L
5540  417 mt 5540  445 L
DO
5540 4950 mt 5540  417 L
5540  417 mt 5540  417 L
SO
5540 4950 mt 5540 4892 L
5540  417 mt 5540  474 L
%%IncludeResource: font Helvetica
/Helvetica /ISOLatin1Encoding 200 FMSR

5392 5246 mt 
(10) s
%%IncludeResource: font Helvetica
/Helvetica /ISOLatin1Encoding 133.333 FMSR

5614 5122 mt 
(4) s
5885 4950 mt 5885 4921 L
5885  417 mt 5885  445 L
DO
5885 4950 mt 5885  417 L
5885  417 mt 5885  417 L
SO
6087 4950 mt 6087 4921 L
6087  417 mt 6087  445 L
DO
6087 4950 mt 6087  417 L
6087  417 mt 6087  417 L
SO
6230 4950 mt 6230 4921 L
6230  417 mt 6230  445 L
DO
6230 4950 mt 6230  417 L
6230  417 mt 6230  417 L
SO
6341 4950 mt 6341 4921 L
6341  417 mt 6341  445 L
DO
6341 4950 mt 6341  417 L
6341  417 mt 6341  417 L
SO
6431 4950 mt 6431 4921 L
6431  417 mt 6431  445 L
DO
6431 4950 mt 6431  417 L
6431  417 mt 6431  417 L
SO
6508 4950 mt 6508 4921 L
6508  417 mt 6508  445 L
DO
6508 4950 mt 6508  417 L
6508  417 mt 6508  417 L
SO
6575 4950 mt 6575 4921 L
6575  417 mt 6575  445 L
DO
6575 4950 mt 6575  417 L
6575  417 mt 6575  417 L
SO
6633 4950 mt 6633 4921 L
6633  417 mt 6633  445 L
DO
6633 4950 mt 6633  417 L
6633  417 mt 6633  417 L
SO
6686 4950 mt 6686 4921 L
6686  417 mt 6686  445 L
DO
6686 4950 mt 6686  417 L
6686  417 mt 6686  417 L
SO
6686 4950 mt 6686 4892 L
6686  417 mt 6686  474 L
%%IncludeResource: font Helvetica
/Helvetica /ISOLatin1Encoding 200 FMSR

6538 5246 mt 
(10) s
%%IncludeResource: font Helvetica
/Helvetica /ISOLatin1Encoding 133.333 FMSR

6760 5122 mt 
(5) s
 960 4950 mt  988 4950 L
6686 4950 mt 6657 4950 L
DO
 960 4950 mt 6686 4950 L
6686 4950 mt 6686 4950 L
SO
 960 4950 mt 1017 4950 L
6686 4950 mt 6628 4950 L
%%IncludeResource: font Helvetica
/Helvetica /ISOLatin1Encoding 200 FMSR

 616 5024 mt 
(10) s
%%IncludeResource: font Helvetica
/Helvetica /ISOLatin1Encoding 133.333 FMSR

 838 4900 mt 
(0) s
 960 4608 mt  988 4608 L
6686 4608 mt 6657 4608 L
DO
 960 4608 mt 6686 4608 L
6686 4608 mt 6686 4608 L
SO
 960 4409 mt  988 4409 L
6686 4409 mt 6657 4409 L
DO
 960 4409 mt 6686 4409 L
6686 4409 mt 6686 4409 L
SO
 960 4267 mt  988 4267 L
6686 4267 mt 6657 4267 L
DO
 960 4267 mt 6686 4267 L
6686 4267 mt 6686 4267 L
SO
 960 4157 mt  988 4157 L
6686 4157 mt 6657 4157 L
DO
 960 4157 mt 6686 4157 L
6686 4157 mt 6686 4157 L
SO
 960 4068 mt  988 4068 L
6686 4068 mt 6657 4068 L
DO
 960 4068 mt 6686 4068 L
6686 4068 mt 6686 4068 L
SO
 960 3992 mt  988 3992 L
6686 3992 mt 6657 3992 L
DO
 960 3992 mt 6686 3992 L
6686 3992 mt 6686 3992 L
SO
 960 3926 mt  988 3926 L
6686 3926 mt 6657 3926 L
DO
 960 3926 mt 6686 3926 L
6686 3926 mt 6686 3926 L
SO
 960 3868 mt  988 3868 L
6686 3868 mt 6657 3868 L
DO
 960 3868 mt 6686 3868 L
6686 3868 mt 6686 3868 L
SO
 960 3816 mt  988 3816 L
6686 3816 mt 6657 3816 L
DO
 960 3816 mt 6686 3816 L
6686 3816 mt 6686 3816 L
SO
 960 3816 mt 1017 3816 L
6686 3816 mt 6628 3816 L
%%IncludeResource: font Helvetica
/Helvetica /ISOLatin1Encoding 200 FMSR

 616 3890 mt 
(10) s
%%IncludeResource: font Helvetica
/Helvetica /ISOLatin1Encoding 133.333 FMSR

 838 3766 mt 
(1) s
 960 3475 mt  988 3475 L
6686 3475 mt 6657 3475 L
DO
 960 3475 mt 6686 3475 L
6686 3475 mt 6686 3475 L
SO
 960 3276 mt  988 3276 L
6686 3276 mt 6657 3276 L
DO
 960 3276 mt 6686 3276 L
6686 3276 mt 6686 3276 L
SO
 960 3134 mt  988 3134 L
6686 3134 mt 6657 3134 L
DO
 960 3134 mt 6686 3134 L
6686 3134 mt 6686 3134 L
SO
 960 3024 mt  988 3024 L
6686 3024 mt 6657 3024 L
DO
 960 3024 mt 6686 3024 L
6686 3024 mt 6686 3024 L
SO
 960 2934 mt  988 2934 L
6686 2934 mt 6657 2934 L
DO
 960 2934 mt 6686 2934 L
6686 2934 mt 6686 2934 L
SO
 960 2859 mt  988 2859 L
6686 2859 mt 6657 2859 L
DO
 960 2859 mt 6686 2859 L
6686 2859 mt 6686 2859 L
SO
 960 2793 mt  988 2793 L
6686 2793 mt 6657 2793 L
DO
 960 2793 mt 6686 2793 L
6686 2793 mt 6686 2793 L
SO
 960 2735 mt  988 2735 L
6686 2735 mt 6657 2735 L
DO
 960 2735 mt 6686 2735 L
6686 2735 mt 6686 2735 L
SO
 960 2683 mt  988 2683 L
6686 2683 mt 6657 2683 L
DO
 960 2683 mt 6686 2683 L
6686 2683 mt 6686 2683 L
SO
 960 2683 mt 1017 2683 L
6686 2683 mt 6628 2683 L
%%IncludeResource: font Helvetica
/Helvetica /ISOLatin1Encoding 200 FMSR

 616 2757 mt 
(10) s
%%IncludeResource: font Helvetica
/Helvetica /ISOLatin1Encoding 133.333 FMSR

 838 2633 mt 
(2) s
 960 2342 mt  988 2342 L
6686 2342 mt 6657 2342 L
DO
 960 2342 mt 6686 2342 L
6686 2342 mt 6686 2342 L
SO
 960 2142 mt  988 2142 L
6686 2142 mt 6657 2142 L
DO
 960 2142 mt 6686 2142 L
6686 2142 mt 6686 2142 L
SO
 960 2001 mt  988 2001 L
6686 2001 mt 6657 2001 L
DO
 960 2001 mt 6686 2001 L
6686 2001 mt 6686 2001 L
SO
 960 1891 mt  988 1891 L
6686 1891 mt 6657 1891 L
DO
 960 1891 mt 6686 1891 L
6686 1891 mt 6686 1891 L
SO
 960 1801 mt  988 1801 L
6686 1801 mt 6657 1801 L
DO
 960 1801 mt 6686 1801 L
6686 1801 mt 6686 1801 L
SO
 960 1725 mt  988 1725 L
6686 1725 mt 6657 1725 L
DO
 960 1725 mt 6686 1725 L
6686 1725 mt 6686 1725 L
SO
 960 1660 mt  988 1660 L
6686 1660 mt 6657 1660 L
DO
 960 1660 mt 6686 1660 L
6686 1660 mt 6686 1660 L
SO
 960 1602 mt  988 1602 L
6686 1602 mt 6657 1602 L
DO
 960 1602 mt 6686 1602 L
6686 1602 mt 6686 1602 L
SO
 960 1550 mt  988 1550 L
6686 1550 mt 6657 1550 L
DO
 960 1550 mt 6686 1550 L
6686 1550 mt 6686 1550 L
SO
 960 1550 mt 1017 1550 L
6686 1550 mt 6628 1550 L
%%IncludeResource: font Helvetica
/Helvetica /ISOLatin1Encoding 200 FMSR

 616 1624 mt 
(10) s
%%IncludeResource: font Helvetica
/Helvetica /ISOLatin1Encoding 133.333 FMSR

 838 1500 mt 
(3) s
 960 1209 mt  988 1209 L
6686 1209 mt 6657 1209 L
DO
 960 1209 mt 6686 1209 L
6686 1209 mt 6686 1209 L
SO
 960 1009 mt  988 1009 L
6686 1009 mt 6657 1009 L
DO
 960 1009 mt 6686 1009 L
6686 1009 mt 6686 1009 L
SO
 960  867 mt  988  867 L
6686  867 mt 6657  867 L
DO
 960  867 mt 6686  867 L
6686  867 mt 6686  867 L
SO
 960  758 mt  988  758 L
6686  758 mt 6657  758 L
DO
 960  758 mt 6686  758 L
6686  758 mt 6686  758 L
SO
 960  668 mt  988  668 L
6686  668 mt 6657  668 L
DO
 960  668 mt 6686  668 L
6686  668 mt 6686  668 L
SO
 960  592 mt  988  592 L
6686  592 mt 6657  592 L
DO
 960  592 mt 6686  592 L
6686  592 mt 6686  592 L
SO
 960  526 mt  988  526 L
6686  526 mt 6657  526 L
DO
 960  526 mt 6686  526 L
6686  526 mt 6686  526 L
SO
 960  468 mt  988  468 L
6686  468 mt 6657  468 L
DO
 960  468 mt 6686  468 L
6686  468 mt 6686  468 L
SO
 960  417 mt  988  417 L
6686  417 mt 6657  417 L
DO
 960  417 mt 6686  417 L
6686  417 mt 6686  417 L
SO
 960  417 mt 1017  417 L
6686  417 mt 6628  417 L
%%IncludeResource: font Helvetica
/Helvetica /ISOLatin1Encoding 200 FMSR

 616  491 mt 
(10) s
%%IncludeResource: font Helvetica
/Helvetica /ISOLatin1Encoding 133.333 FMSR

 838  367 mt 
(4) s
 960 4950 mt 6686 4950 L
 960  417 mt 6686  417 L
 960 4950 mt  960  417 L
6686 4950 mt 6686  417 L
gs 960 417 5727 4534 MR c np
33.3333 w
/c8 { 0.000000 0.000000 1.000000 sr} bdef
c8
344 6 345 5 345 5 345 5 344 5 345 5 345 5 345 4 
344 7 123 3 5 0 5 0 5 0 5 0 6 0 5 1 
5 0 6 0 5 0 6 0 5 0 6 0 5 1 6 0 
6 0 6 0 6 0 6 0 6 1 6 0 6 0 7 0 
6 1 7 0 6 0 7 0 7 0 6 0 7 0 7 1 
8 0 7 0 7 0 8 0 7 0 8 0 8 0 8 1 
8 0 8 0 9 0 8 1 9 0 8 0 9 1 10 0 
9 1 9 0 10 0 10 1 10 0 10 1 11 1 10 0 
11 1 11 0 12 0 12 0 12 0 12 1 12 0 13 1 
14 0 13 0 14 0 15 1 14 1 16 0 16 3 16 0 
17 0 17 5 18 2 19 0 20 2 20 2 21 1 22 2 
23 0 25 2 25 1 27 1 28 7 31 0 32 43 34 6 
37 1 40 6 43 11 2152 3048 100 MP stroke
47 8 53 3 58 4 67 12 76 7 91 51 111 1 143 32 
202 1 344 39 960 2890 11 MP stroke
/c9 { 1.000000 0.000000 0.000000 sr} bdef
c9
344 5 345 5 345 5 345 6 344 6 345 6 345 5 345 6 
344 6 123 3 5 0 5 0 5 0 5 0 6 0 5 0 
5 0 6 0 5 0 6 0 5 0 6 1 5 0 6 0 
6 0 6 0 6 0 6 0 6 0 6 0 6 0 7 0 
6 0 7 0 6 0 7 0 7 0 6 0 7 1 7 0 
8 0 7 0 7 0 8 0 7 1 8 0 8 0 8 0 
8 1 8 0 9 0 8 0 9 0 8 2 9 0 10 0 
9 0 9 0 10 0 10 1 10 0 10 1 11 0 10 0 
11 2 11 0 12 0 12 0 12 0 12 0 12 0 13 1 
14 1 13 0 14 2 15 2 14 1 16 1 16 3 16 0 
17 2 17 0 18 4 19 3 20 6 20 7 21 2 22 3 
23 4 25 0 25 1 27 9 28 9 31 14 32 1 34 3 
37 0 40 7 43 7 2152 3052 100 MP stroke
47 2 53 4 58 95 67 7 76 4 91 6 111 4 143 63 
202 48 344 5 960 2814 11 MP stroke
/c10 { 0.000000 1.000000 1.000000 sr} bdef
c10
344 24 345 24 345 21 345 20 344 20 345 20 345 19 345 18 
344 18 123 7 5 0 5 0 5 1 5 1 6 0 5 1 
5 0 6 0 5 1 6 1 5 0 6 0 5 0 6 0 
6 1 6 0 6 0 6 0 6 0 6 1 6 1 7 1 
6 1 7 0 6 0 7 1 7 0 6 0 7 0 7 0 
8 1 7 1 7 1 8 0 7 0 8 1 8 1 8 0 
8 1 8 1 9 0 8 1 9 1 8 1 9 0 10 0 
9 0 9 1 10 1 10 1 10 0 10 0 11 0 10 1 
11 0 11 0 12 2 12 0 12 1 12 1 12 0 13 0 
14 0 13 1 14 1 15 1 14 1 16 0 16 0 16 2 
17 1 17 1 18 1 19 0 20 0 20 0 21 1 22 0 
23 4 25 1 25 0 27 0 28 2 31 0 32 1 34 1 
37 0 40 1 43 2 2152 3825 100 MP stroke
47 4 53 2 58 3 67 1 76 1 91 4 111 13 143 316 
202 73 344 16 960 3392 11 MP stroke
/c11 { 1.000000 0.000000 1.000000 sr} bdef
c11
344 24 345 23 345 22 345 20 344 19 345 18 345 18 345 19 
344 18 123 8 5 0 5 2 5 0 5 0 6 0 5 0 
5 2 6 0 5 0 6 2 5 2 6 0 5 2 6 0 
6 1 6 1 6 0 6 1 6 0 6 0 6 0 7 1 
6 1 7 1 6 1 7 0 7 1 6 1 7 0 7 1 
8 0 7 0 7 0 8 1 7 0 8 1 8 0 8 1 
8 0 8 0 9 0 8 0 9 2 8 3 9 0 10 0 
9 2 9 1 10 0 10 1 10 0 10 2 11 1 10 0 
11 1 11 0 12 1 12 2 12 1 12 1 12 0 13 4 
14 3 13 1 14 5 15 6 14 0 16 1 16 5 16 15 
17 1 17 2 18 6 19 12 20 8 20 10 21 5 22 8 
23 24 25 2 25 34 27 14 28 5 31 9 32 1 34 17 
37 31 40 8 43 3 2152 3597 100 MP stroke
47 6 53 43 58 16 67 1 76 27 91 5 111 4 143 8 
202 3 344 324 960 3160 11 MP stroke
DA
c8
344 30 345 30 345 28 345 27 344 25 345 27 345 28 345 32 
344 51 123 23 5 0 5 0 5 0 5 0 6 0 5 0 
5 0 6 1 5 4 6 0 5 3 6 4 5 2 6 2 
6 1 6 2 6 0 6 1 6 0 6 0 6 0 7 3 
6 11 7 0 6 6 7 2 7 2 6 9 7 2 7 0 
8 5 7 2 7 2 8 0 7 0 8 3 8 10 8 1 
8 3 8 5 9 4 8 1 9 4 8 5 9 0 10 2 
9 10 9 2 10 0 10 1 10 4 10 1 11 11 10 6 
11 0 11 0 12 20 12 5 12 8 12 20 12 1 13 6 
14 6 13 0 14 0 15 4 14 1 16 18 16 2 16 2 
17 11 17 0 18 52 19 5 20 3 20 1 21 8 22 23 
23 1 25 8 25 3 27 0 28 1 31 2 32 0 34 18 
37 0 40 0 43 0 2152 827 100 MP stroke
47 0 53 2 58 12 67 8 76 0 91 12 111 6 143 12 
202 45 344 166 960 564 11 MP stroke
/c12 { 0.000000 1.000000 0.000000 sr} bdef
c12
344 5 345 339 345 1 345 1 344 1 345 1 345 2 345 3 
344 5 123 3 5 1 5 0 5 0 5 0 6 0 5 0 
5 0 6 0 5 0 6 0 5 0 6 0 5 1 6 0 
6 0 6 0 6 0 6 0 6 0 6 0 6 0 7 0 
6 0 7 1 6 0 7 0 7 0 6 0 7 0 7 0 
8 0 7 0 7 0 8 0 7 1 8 0 8 0 8 0 
8 0 8 0 9 1 8 0 9 0 8 0 9 1 10 0 
9 0 9 0 10 1 10 0 10 0 10 1 11 0 10 1 
11 0 11 2 12 1 12 0 12 1 12 1 12 1 13 0 
14 0 13 1 14 4 15 0 14 0 16 1 16 1 16 0 
17 0 17 1 18 4 19 6 20 8 20 0 21 0 22 18 
23 0 25 1 25 0 27 33 28 0 31 0 32 0 34 0 
37 1 40 17 43 73 2152 2041 100 MP stroke
47 0 53 0 58 0 67 0 76 23 91 6 111 41 143 72 
202 0 344 0 960 1899 11 MP stroke
gr

33.3333 w
c12
DA
0 sg
%%IncludeResource: font Helvetica
/Helvetica /ISOLatin1Encoding 200 FMSR

3172  258 mt 
(pvalues for RA) s
 407 3080 mt  -90 rotate
(-log) s
90 rotate
%%IncludeResource: font Helvetica
/Helvetica /ISOLatin1Encoding 150 FMSR

 507 2697 mt  -90 rotate
(10) s
90 rotate
%%IncludeResource: font Helvetica
/Helvetica /ISOLatin1Encoding 200 FMSR

 407 2531 mt  -90 rotate
(\(p\)) s
90 rotate
3090 5469 mt 
(sorted list length) s
%%IncludeResource: font Helvetica
/Helvetica /ISOLatin1Encoding 166.667 FMSR

 937 5010 mt 
( ) s
6664  476 mt 
( ) s
SO
8.33333 w
1 sg
0 1854 1752 0 0 -1854 4852 2354 4 MP
PP
-1752 0 0 1854 1752 0 0 -1854 4852 2354 5 MP stroke
5.55556 w
DO
SO
8.33333 w
0 sg
4852 2354 mt 6604 2354 L
4852  500 mt 6604  500 L
4852 2354 mt 4852  500 L
6604 2354 mt 6604  500 L
4852 2354 mt 6604 2354 L
4852 2354 mt 4852  500 L
4852 2354 mt 6604 2354 L
4852  500 mt 6604  500 L
4852 2354 mt 4852  500 L
6604 2354 mt 6604  500 L
%%IncludeResource: font Helvetica
/Helvetica /ISOLatin1Encoding 200 FMSR

5512  753 mt 
(Chi) s
%%IncludeResource: font Helvetica
/Helvetica /ISOLatin1Encoding 150 FMSR

5812  653 mt 
(2) s
gs 4852 500 1753 1855 MR c np
33.3333 w
c8
507 0 4953 668 2 MP stroke
gr

33.3333 w
c8
0 sg
%%IncludeResource: font Helvetica
/Helvetica /ISOLatin1Encoding 200 FMSR

5512 1007 mt 
(SS) s
gs 4852 500 1753 1855 MR c np
c9
507 0 4953 935 2 MP stroke
gr

c9
0 sg
5512 1253 mt 
(plink fastepi) s
gs 4852 500 1753 1855 MR c np
c10
507 0 4953 1181 2 MP stroke
gr

c10
0 sg
5512 1499 mt 
(GBOOST) s
gs 4852 500 1753 1855 MR c np
c11
507 0 4953 1427 2 MP stroke
gr

c11
0 sg
5512 1744 mt 
(SHEsisEpi) s
gs 4852 500 1753 1855 MR c np
DA
c8
507 0 4953 1672 2 MP stroke
SO
gr

c8
0 sg
5512 1990 mt 
(Epiblaster) s
gs 4852 500 1753 1855 MR c np
DA
c9
507 0 4953 1918 2 MP stroke
SO
gr

c9
0 sg
5512 2272 mt 
(2Chi) s
%%IncludeResource: font Helvetica
/Helvetica /ISOLatin1Encoding 150 FMSR

5923 2172 mt 
(2) s
gs 4852 500 1753 1855 MR c np
DA
c12
507 0 4953 2185 2 MP stroke
SO
8.33333 w
gr

8.33333 w
c12

end %%Color Dict

eplot
%%EndObject

epage
end

showpage

%%Trailer
%%EOF
