%!PS-Adobe-2.0 EPSF-2.0
%%Title: /home/cabal/Desktop/GWIS2.dia
%%Creator: Dia v0.97.2
%%CreationDate: Wed Nov 27 12:31:19 2013
%%For: cabal
%%Orientation: Portrait
%%Magnification: 1.0000
%%BoundingBox: 0 0 1378 804
%%BeginSetup
%%EndSetup
%%EndComments
%%BeginProlog
[ /.notdef /.notdef /.notdef /.notdef /.notdef /.notdef /.notdef /.notdef /.notdef /.notdef
/.notdef /.notdef /.notdef /.notdef /.notdef /.notdef /.notdef /.notdef /.notdef /.notdef
/.notdef /.notdef /.notdef /.notdef /.notdef /.notdef /.notdef /.notdef /.notdef /.notdef
/.notdef /.notdef /space /exclam /quotedbl /numbersign /dollar /percent /ampersand /quoteright
/parenleft /parenright /asterisk /plus /comma /hyphen /period /slash /zero /one
/two /three /four /five /six /seven /eight /nine /colon /semicolon
/less /equal /greater /question /at /A /B /C /D /E
/F /G /H /I /J /K /L /M /N /O
/P /Q /R /S /T /U /V /W /X /Y
/Z /bracketleft /backslash /bracketright /asciicircum /underscore /quoteleft /a /b /c
/d /e /f /g /h /i /j /k /l /m
/n /o /p /q /r /s /t /u /v /w
/x /y /z /braceleft /bar /braceright /asciitilde /.notdef /.notdef /.notdef
/.notdef /.notdef /.notdef /.notdef /.notdef /.notdef /.notdef /.notdef /.notdef /.notdef
/.notdef /.notdef /.notdef /.notdef /.notdef /.notdef /.notdef /.notdef /.notdef /.notdef
/.notdef /.notdef /.notdef /.notdef /.notdef /.notdef /.notdef /.notdef /.notdef /.notdef
/space /exclamdown /cent /sterling /currency /yen /brokenbar /section /dieresis /copyright
/ordfeminine /guillemotleft /logicalnot /hyphen /registered /macron /degree /plusminus /twosuperior /threesuperior
/acute /mu /paragraph /periodcentered /cedilla /onesuperior /ordmasculine /guillemotright /onequarter /onehalf
/threequarters /questiondown /Agrave /Aacute /Acircumflex /Atilde /Adieresis /Aring /AE /Ccedilla
/Egrave /Eacute /Ecircumflex /Edieresis /Igrave /Iacute /Icircumflex /Idieresis /Eth /Ntilde
/Ograve /Oacute /Ocircumflex /Otilde /Odieresis /multiply /Oslash /Ugrave /Uacute /Ucircumflex
/Udieresis /Yacute /Thorn /germandbls /agrave /aacute /acircumflex /atilde /adieresis /aring
/ae /ccedilla /egrave /eacute /ecircumflex /edieresis /igrave /iacute /icircumflex /idieresis
/eth /ntilde /ograve /oacute /ocircumflex /otilde /odieresis /divide /oslash /ugrave
/uacute /ucircumflex /udieresis /yacute /thorn /ydieresis] /isolatin1encoding exch def
/cp {closepath} bind def
/c {curveto} bind def
/f {fill} bind def
/a {arc} bind def
/ef {eofill} bind def
/ex {exch} bind def
/gr {grestore} bind def
/gs {gsave} bind def
/sa {save} bind def
/rs {restore} bind def
/l {lineto} bind def
/m {moveto} bind def
/rm {rmoveto} bind def
/n {newpath} bind def
/s {stroke} bind def
/sh {show} bind def
/slc {setlinecap} bind def
/slj {setlinejoin} bind def
/slw {setlinewidth} bind def
/srgb {setrgbcolor} bind def
/rot {rotate} bind def
/sc {scale} bind def
/sd {setdash} bind def
/ff {findfont} bind def
/sf {setfont} bind def
/scf {scalefont} bind def
/sw {stringwidth pop} bind def
/tr {translate} bind def

/ellipsedict 8 dict def
ellipsedict /mtrx matrix put
/ellipse
{ ellipsedict begin
   /endangle exch def
   /startangle exch def
   /yrad exch def
   /xrad exch def
   /y exch def
   /x exch def   /savematrix mtrx currentmatrix def
   x y tr xrad yrad sc
   0 0 1 startangle endangle arc
   savematrix setmatrix
   end
} def

/mergeprocs {
dup length
3 -1 roll
dup
length
dup
5 1 roll
3 -1 roll
add
array cvx
dup
3 -1 roll
0 exch
putinterval
dup
4 2 roll
putinterval
} bind def
/Times-Roman-latin1
    /Times-Roman findfont
    dup length dict begin
	{1 index /FID ne {def} {pop pop} ifelse} forall
	/Encoding isolatin1encoding def
    currentdict end
definefont pop
/Times-Italic-latin1
    /Times-Italic findfont
    dup length dict begin
	{1 index /FID ne {def} {pop pop} ifelse} forall
	/Encoding isolatin1encoding def
    currentdict end
definefont pop
/Times-Bold-latin1
    /Times-Bold findfont
    dup length dict begin
	{1 index /FID ne {def} {pop pop} ifelse} forall
	/Encoding isolatin1encoding def
    currentdict end
definefont pop
/Times-BoldItalic-latin1
    /Times-BoldItalic findfont
    dup length dict begin
	{1 index /FID ne {def} {pop pop} ifelse} forall
	/Encoding isolatin1encoding def
    currentdict end
definefont pop
/AvantGarde-Gothic-latin1
    /AvantGarde-Gothic findfont
    dup length dict begin
	{1 index /FID ne {def} {pop pop} ifelse} forall
	/Encoding isolatin1encoding def
    currentdict end
definefont pop
/AvantGarde-BookOblique-latin1
    /AvantGarde-BookOblique findfont
    dup length dict begin
	{1 index /FID ne {def} {pop pop} ifelse} forall
	/Encoding isolatin1encoding def
    currentdict end
definefont pop
/AvantGarde-Demi-latin1
    /AvantGarde-Demi findfont
    dup length dict begin
	{1 index /FID ne {def} {pop pop} ifelse} forall
	/Encoding isolatin1encoding def
    currentdict end
definefont pop
/AvantGarde-DemiOblique-latin1
    /AvantGarde-DemiOblique findfont
    dup length dict begin
	{1 index /FID ne {def} {pop pop} ifelse} forall
	/Encoding isolatin1encoding def
    currentdict end
definefont pop
/Bookman-Light-latin1
    /Bookman-Light findfont
    dup length dict begin
	{1 index /FID ne {def} {pop pop} ifelse} forall
	/Encoding isolatin1encoding def
    currentdict end
definefont pop
/Bookman-LightItalic-latin1
    /Bookman-LightItalic findfont
    dup length dict begin
	{1 index /FID ne {def} {pop pop} ifelse} forall
	/Encoding isolatin1encoding def
    currentdict end
definefont pop
/Bookman-Demi-latin1
    /Bookman-Demi findfont
    dup length dict begin
	{1 index /FID ne {def} {pop pop} ifelse} forall
	/Encoding isolatin1encoding def
    currentdict end
definefont pop
/Bookman-DemiItalic-latin1
    /Bookman-DemiItalic findfont
    dup length dict begin
	{1 index /FID ne {def} {pop pop} ifelse} forall
	/Encoding isolatin1encoding def
    currentdict end
definefont pop
/Courier-latin1
    /Courier findfont
    dup length dict begin
	{1 index /FID ne {def} {pop pop} ifelse} forall
	/Encoding isolatin1encoding def
    currentdict end
definefont pop
/Courier-Oblique-latin1
    /Courier-Oblique findfont
    dup length dict begin
	{1 index /FID ne {def} {pop pop} ifelse} forall
	/Encoding isolatin1encoding def
    currentdict end
definefont pop
/Courier-Bold-latin1
    /Courier-Bold findfont
    dup length dict begin
	{1 index /FID ne {def} {pop pop} ifelse} forall
	/Encoding isolatin1encoding def
    currentdict end
definefont pop
/Courier-BoldOblique-latin1
    /Courier-BoldOblique findfont
    dup length dict begin
	{1 index /FID ne {def} {pop pop} ifelse} forall
	/Encoding isolatin1encoding def
    currentdict end
definefont pop
/Helvetica-latin1
    /Helvetica findfont
    dup length dict begin
	{1 index /FID ne {def} {pop pop} ifelse} forall
	/Encoding isolatin1encoding def
    currentdict end
definefont pop
/Helvetica-Oblique-latin1
    /Helvetica-Oblique findfont
    dup length dict begin
	{1 index /FID ne {def} {pop pop} ifelse} forall
	/Encoding isolatin1encoding def
    currentdict end
definefont pop
/Helvetica-Bold-latin1
    /Helvetica-Bold findfont
    dup length dict begin
	{1 index /FID ne {def} {pop pop} ifelse} forall
	/Encoding isolatin1encoding def
    currentdict end
definefont pop
/Helvetica-BoldOblique-latin1
    /Helvetica-BoldOblique findfont
    dup length dict begin
	{1 index /FID ne {def} {pop pop} ifelse} forall
	/Encoding isolatin1encoding def
    currentdict end
definefont pop
/Helvetica-Narrow-latin1
    /Helvetica-Narrow findfont
    dup length dict begin
	{1 index /FID ne {def} {pop pop} ifelse} forall
	/Encoding isolatin1encoding def
    currentdict end
definefont pop
/Helvetica-Narrow-Oblique-latin1
    /Helvetica-Narrow-Oblique findfont
    dup length dict begin
	{1 index /FID ne {def} {pop pop} ifelse} forall
	/Encoding isolatin1encoding def
    currentdict end
definefont pop
/Helvetica-Narrow-Bold-latin1
    /Helvetica-Narrow-Bold findfont
    dup length dict begin
	{1 index /FID ne {def} {pop pop} ifelse} forall
	/Encoding isolatin1encoding def
    currentdict end
definefont pop
/Helvetica-Narrow-BoldOblique-latin1
    /Helvetica-Narrow-BoldOblique findfont
    dup length dict begin
	{1 index /FID ne {def} {pop pop} ifelse} forall
	/Encoding isolatin1encoding def
    currentdict end
definefont pop
/NewCenturySchlbk-Roman-latin1
    /NewCenturySchlbk-Roman findfont
    dup length dict begin
	{1 index /FID ne {def} {pop pop} ifelse} forall
	/Encoding isolatin1encoding def
    currentdict end
definefont pop
/NewCenturySchlbk-Italic-latin1
    /NewCenturySchlbk-Italic findfont
    dup length dict begin
	{1 index /FID ne {def} {pop pop} ifelse} forall
	/Encoding isolatin1encoding def
    currentdict end
definefont pop
/NewCenturySchlbk-Bold-latin1
    /NewCenturySchlbk-Bold findfont
    dup length dict begin
	{1 index /FID ne {def} {pop pop} ifelse} forall
	/Encoding isolatin1encoding def
    currentdict end
definefont pop
/NewCenturySchlbk-BoldItalic-latin1
    /NewCenturySchlbk-BoldItalic findfont
    dup length dict begin
	{1 index /FID ne {def} {pop pop} ifelse} forall
	/Encoding isolatin1encoding def
    currentdict end
definefont pop
/Palatino-Roman-latin1
    /Palatino-Roman findfont
    dup length dict begin
	{1 index /FID ne {def} {pop pop} ifelse} forall
	/Encoding isolatin1encoding def
    currentdict end
definefont pop
/Palatino-Italic-latin1
    /Palatino-Italic findfont
    dup length dict begin
	{1 index /FID ne {def} {pop pop} ifelse} forall
	/Encoding isolatin1encoding def
    currentdict end
definefont pop
/Palatino-Bold-latin1
    /Palatino-Bold findfont
    dup length dict begin
	{1 index /FID ne {def} {pop pop} ifelse} forall
	/Encoding isolatin1encoding def
    currentdict end
definefont pop
/Palatino-BoldItalic-latin1
    /Palatino-BoldItalic findfont
    dup length dict begin
	{1 index /FID ne {def} {pop pop} ifelse} forall
	/Encoding isolatin1encoding def
    currentdict end
definefont pop
/Symbol-latin1
    /Symbol findfont
definefont pop
/ZapfChancery-MediumItalic-latin1
    /ZapfChancery-MediumItalic findfont
    dup length dict begin
	{1 index /FID ne {def} {pop pop} ifelse} forall
	/Encoding isolatin1encoding def
    currentdict end
definefont pop
/ZapfDingbats-latin1
    /ZapfDingbats findfont
    dup length dict begin
	{1 index /FID ne {def} {pop pop} ifelse} forall
	/Encoding isolatin1encoding def
    currentdict end
definefont pop
28.346000 -28.346000 scale
-33.322627 -37.004525 translate
%%EndProlog


0.100000 slw
[] 0 sd
[] 0 sd
0 slc
0 slj
0.100000 slw
0 slc
0 slj
[] 0 sd
1.000000 1.000000 1.000000 srgb
n 76.263576 11.000000 m 81.863576 11.000000 l 81.863576 15.500000 l 80.743576 14.750000 80.183576 14.750000 79.063576 15.500000 c 77.943576 16.250000 77.383576 16.250000 76.263576 15.500000 c 76.263576 11.000000 l ef
0.000000 0.000000 0.000000 srgb
n 76.263576 11.000000 m 81.863576 11.000000 l 81.863576 15.500000 l 80.743576 14.750000 80.183576 14.750000 79.063576 15.500000 c 77.943576 16.250000 77.383576 16.250000 76.263576 15.500000 c 76.263576 11.000000 l s
/Helvetica-latin1 ff 0.560000 scf sf
(Algorithm F) dup sw 2 div 79.063576 ex sub 12.875000 m
 gs 1 -1 sc sh gr
1.000000 1.000000 1.000000 srgb
n 67.150000 10.595475 m 67.150000 15.945475 l 73.550000 15.945475 l 73.550000 10.595475 l f
0.100000 slw
[] 0 sd
[] 0 sd
0 slj
0.000000 0.000000 0.000000 srgb
n 67.150000 10.595475 m 67.150000 15.945475 l 73.550000 15.945475 l 73.550000 10.595475 l cp s
(GWIS2 Interface) dup sw 2 div 70.350000 ex sub 13.265475 m
 gs 1 -1 sc sh gr
1.000000 1.000000 1.000000 srgb
n 58.563409 10.950000 m 64.600000 10.950000 l 62.902989 15.612500 l 56.866398 15.612500 l ef
0.100000 slw
[] 0 sd
[] 0 sd
0 slj
0.000000 0.000000 0.000000 srgb
n 58.563409 10.950000 m 64.600000 10.950000 l 62.902989 15.612500 l 56.866398 15.612500 l cp s
(CUDA Kernel) dup sw 2 div 60.733199 ex sub 12.876250 m
 gs 1 -1 sc sh gr
(Function of F) dup sw 2 div 60.733199 ex sub 13.676250 m
 gs 1 -1 sc sh gr
0.100000 slw
[] 0 sd
[] 0 sd
0 slc
0 slj
0.100000 slw
0 slc
0 slj
[] 0 sd
1.000000 1.000000 1.000000 srgb
n 42.750000 8.725000 m 55.700000 8.725000 l 55.700000 32.125000 l 53.110000 28.225000 51.815000 28.225000 49.225000 32.125000 c 46.635000 36.025000 45.340000 36.025000 42.750000 32.125000 c 42.750000 8.725000 l ef
0.000000 0.000000 0.000000 srgb
n 42.750000 8.725000 m 55.700000 8.725000 l 55.700000 32.125000 l 53.110000 28.225000 51.815000 28.225000 49.225000 32.125000 c 46.635000 36.025000 45.340000 36.025000 42.750000 32.125000 c 42.750000 8.725000 l s
(C main Function{) dup sw 2 div 49.225000 ex sub 9.275000 m
 gs 1 -1 sc sh gr
(}) dup sw 2 div 49.225000 ex sub 27.675000 m
 gs 1 -1 sc sh gr
1.000000 1.000000 1.000000 srgb
n 46.111176 10.350000 m 53.653529 10.350000 l 51.979265 14.950000 l 44.436913 14.950000 l ef
0.100000 slw
[] 0 sd
[] 0 sd
0 slj
0.000000 0.000000 0.000000 srgb
n 46.111176 10.350000 m 53.653529 10.350000 l 51.979265 14.950000 l 44.436913 14.950000 l cp s
(External Data) dup sw 2 div 49.045221 ex sub 12.245000 m
 gs 1 -1 sc sh gr
(\(e.g. lookup table\)) dup sw 2 div 49.045221 ex sub 13.045000 m
 gs 1 -1 sc sh gr
1.000000 1.000000 1.000000 srgb
n 45.400000 16.925000 m 45.400000 26.825000 l 52.600000 26.825000 l 52.600000 16.925000 l f
0.100000 slw
[] 0 sd
[] 0 sd
0 slj
0.000000 0.000000 0.000000 srgb
n 45.400000 16.925000 m 45.400000 26.825000 l 52.600000 26.825000 l 52.600000 16.925000 l cp s
(GWIS2) dup sw 2 div 49.000000 ex sub 17.870000 m
 gs 1 -1 sc sh gr
(Computing Kernel) dup sw 2 div 49.000000 ex sub 18.670000 m
 gs 1 -1 sc sh gr
0.100000 slw
[] 0 sd
[] 0 sd
0 slc
0 slj
0.100000 slw
0 slc
0 slj
[] 0 sd
1.000000 1.000000 1.000000 srgb
n 33.372627 19.854525 m 34.722627 18.842025 35.397627 18.504525 36.747627 18.504525 c 38.097627 18.504525 38.772627 18.842025 40.122627 19.854525 c 40.122627 25.254525 l 38.772627 26.267025 38.097627 26.604525 36.747627 26.604525 c 35.397627 26.604525 34.722627 26.267025 33.372627 25.254525 c 33.372627 19.854525 l ef
0.000000 0.000000 0.000000 srgb
n 33.372627 19.854525 m 34.722627 18.842025 35.397627 18.504525 36.747627 18.504525 c 38.097627 18.504525 38.772627 18.842025 40.122627 19.854525 c 40.122627 25.254525 l 38.772627 26.267025 38.097627 26.604525 36.747627 26.604525 c 35.397627 26.604525 34.722627 26.267025 33.372627 25.254525 c 33.372627 19.854525 l s
0 slc
0 slj
[] 0 sd
n 33.372627 19.854525 m 34.722627 20.867025 35.397627 21.204525 36.747627 21.204525 c 38.097627 21.204525 38.772627 20.867025 40.122627 19.854525 c s
(GWAS Data) dup sw 2 div 36.747627 ex sub 22.829525 m
 gs 1 -1 sc sh gr
(Case and Control) dup sw 2 div 36.747627 ex sub 23.629525 m
 gs 1 -1 sc sh gr
1.000000 1.000000 1.000000 srgb
n 47.300000 19.650000 m 47.300000 21.550000 l 50.920000 21.550000 l 50.920000 19.650000 l f
0.100000 slw
[] 0 sd
[] 0 sd
0 slj
0.000000 0.000000 0.000000 srgb
n 47.300000 19.650000 m 47.300000 21.550000 l 50.920000 21.550000 l 50.920000 19.650000 l cp s
(buffer 1) dup sw 2 div 49.110000 ex sub 20.595000 m
 gs 1 -1 sc sh gr
1.000000 1.000000 1.000000 srgb
n 47.290000 21.805000 m 47.290000 23.705000 l 50.910000 23.705000 l 50.910000 21.805000 l f
0.100000 slw
[] 0 sd
[] 0 sd
0 slj
0.000000 0.000000 0.000000 srgb
n 47.290000 21.805000 m 47.290000 23.705000 l 50.910000 23.705000 l 50.910000 21.805000 l cp s
(buffer 2) dup sw 2 div 49.100000 ex sub 22.750000 m
 gs 1 -1 sc sh gr
1.000000 1.000000 1.000000 srgb
n 47.280000 24.060000 m 47.280000 25.960000 l 50.900000 25.960000 l 50.900000 24.060000 l f
0.100000 slw
[] 0 sd
[] 0 sd
0 slj
0.000000 0.000000 0.000000 srgb
n 47.280000 24.060000 m 47.280000 25.960000 l 50.900000 25.960000 l 50.900000 24.060000 l cp s
(buffer 3) dup sw 2 div 49.090000 ex sub 25.005000 m
 gs 1 -1 sc sh gr
0.100000 slw
[] 0 sd
[] 0 sd
0 slc
n 48.951413 15.929228 5.068673 5.068673 319.687212 64.620074 ellipse s
0.100000 slw
[] 0 sd
0 slj
0 slc
n 51.386680 20.132011 m 51.023027 20.556577 l 51.580871 20.592760 l s
1.000000 1.000000 1.000000 srgb
n 57.004525 19.850000 m 57.004525 25.550000 l 62.722025 25.550000 l 62.722025 19.850000 l f
0.100000 slw
[] 0 sd
[] 0 sd
0 slj
0.000000 0.000000 0.000000 srgb
n 57.004525 19.850000 m 57.004525 25.550000 l 62.722025 25.550000 l 62.722025 19.850000 l cp s
(GWIS2) dup sw 2 div 59.863275 ex sub 22.295000 m
 gs 1 -1 sc sh gr
(Method Kernel) dup sw 2 div 59.863275 ex sub 23.095000 m
 gs 1 -1 sc sh gr
1.000000 1.000000 1.000000 srgb
n 57.570242 33.004525 m 62.163918 33.004525 l 60.726236 36.954525 l 56.132559 36.954525 l ef
0.100000 slw
[] 0 sd
[] 0 sd
0 slj
0.000000 0.000000 0.000000 srgb
n 57.570242 33.004525 m 62.163918 33.004525 l 60.726236 36.954525 l 56.132559 36.954525 l cp s
(OE Values) dup sw 2 div 59.148239 ex sub 34.974525 m
 gs 1 -1 sc sh gr
0.100000 slw
[] 0 sd
[] 0 sd
0 slj
0 slc
n 59.867080 33.004525 m 59.867080 29.277263 l 59.863275 29.277263 l 59.863275 25.773607 l s
0.100000 slw
[] 0 sd
0 slj
0 slc
n 60.113275 26.161803 m 59.863275 25.661803 l 59.613275 26.161803 l s
0.100000 slw
[] 0 sd
[] 0 sd
0 slj
0 slc
n 50.920000 20.600000 m 53.962263 20.600000 l 53.962263 21.275000 l 56.780919 21.275000 l s
0.100000 slw
[] 0 sd
0 slj
0 slc
n 56.392722 21.525000 m 56.892722 21.275000 l 56.392722 21.025000 l s
1.000000 1.000000 1.000000 srgb
n 74.133305 20.045475 m 80.973158 20.045475 l 79.044115 25.345475 l 72.204263 25.345475 l ef
0.100000 slw
[] 0 sd
[] 0 sd
0 slj
0.000000 0.000000 0.000000 srgb
n 74.133305 20.045475 m 80.973158 20.045475 l 79.044115 25.345475 l 72.204263 25.345475 l cp s
(A List of Ranked) dup sw 2 div 76.588710 ex sub 22.290475 m
 gs 1 -1 sc sh gr
(SNP pairs) dup sw 2 div 76.588710 ex sub 23.090475 m
 gs 1 -1 sc sh gr
0.100000 slw
[] 0 sd
[] 0 sd
0 slj
0 slc
n 57.004525 24.125000 m 53.952263 24.125000 l 53.952263 25.010000 l 51.123607 25.010000 l s
0.100000 slw
[] 0 sd
0 slj
0 slc
n 51.511803 24.760000 m 51.011803 25.010000 l 51.511803 25.260000 l s
0.100000 slw
[] 0 sd
[] 0 sd
0 slj
0 slc
n 50.800000 26.825000 m 50.800000 34.979525 l 56.627794 34.979525 l s
0.100000 slw
[] 0 sd
0 slj
0 slc
n 56.239597 35.229525 m 56.739597 34.979525 l 56.239597 34.729525 l s
0.100000 slw
[] 0 sd
[] 0 sd
0 slc
n 59.884694 15.612500 m 59.864406 19.626396 l s
0.100000 slw
[] 0 sd
0 slj
0 slc
n 59.616371 19.236941 m 59.863840 19.738198 l 60.116364 19.239468 l s
0.100000 slw
[] 0 sd
[] 0 sd
0 slc
n 67.150000 13.270475 m 63.975100 13.280541 l s
0.100000 slw
[] 0 sd
0 slj
0 slc
n 64.362502 13.029311 m 63.863297 13.280896 l 64.364087 13.529309 l s
0.100000 slw
[] 0 sd
[] 0 sd
0 slc
n 76.263576 13.250000 m 73.773600 13.268787 l s
0.100000 slw
[] 0 sd
0 slj
0 slc
n 74.159900 13.015866 m 73.661800 13.269631 l 74.163672 13.515851 l s
0.100000 slw
[] 0 sd
[] 0 sd
0 slc
n 62.722025 22.700000 m 72.945177 22.695571 l s
0.100000 slw
[] 0 sd
0 slj
0 slc
n 72.557089 22.945740 m 73.056981 22.695523 l 72.556872 22.445740 l s
0.100000 slw
[] 0 sd
[] 0 sd
0 slc
n 40.122627 21.879525 m 45.176393 21.875192 l s
0.100000 slw
[] 0 sd
0 slj
0 slc
n 44.788411 22.125525 m 45.288197 21.875096 l 44.787982 21.625525 l s
showpage
